ARM GAS  C:\Users\JOHNSO~1\AppData\Local\Temp\ccQSzsVJ.s 			page 1


   1              		.cpu cortex-m0
   2              		.fpu softvfp
   3              		.eabi_attribute 20, 1
   4              		.eabi_attribute 21, 1
   5              		.eabi_attribute 23, 3
   6              		.eabi_attribute 24, 1
   7              		.eabi_attribute 25, 1
   8              		.eabi_attribute 26, 1
   9              		.eabi_attribute 30, 1
  10              		.eabi_attribute 34, 0
  11              		.eabi_attribute 18, 4
  12              		.code	16
  13              		.file	"PSoC_SPI_INT.c"
  14              		.text
  15              	.Ltext0:
  16              		.cfi_sections	.debug_frame
  17              		.section	.text.PSoC_SPI_TX_ISR,"ax",%progbits
  18              		.align	2
  19              		.global	PSoC_SPI_TX_ISR
  20              		.code	16
  21              		.thumb_func
  22              		.type	PSoC_SPI_TX_ISR, %function
  23              	PSoC_SPI_TX_ISR:
  24              	.LFB2:
  25              		.file 1 ".\\Generated_Source\\PSoC4\\PSoC_SPI_INT.c"
   1:.\Generated_Source\PSoC4/PSoC_SPI_INT.c **** /*******************************************************************************
   2:.\Generated_Source\PSoC4/PSoC_SPI_INT.c **** * File Name: PSoC_SPI_INT.c
   3:.\Generated_Source\PSoC4/PSoC_SPI_INT.c **** * Version 2.70
   4:.\Generated_Source\PSoC4/PSoC_SPI_INT.c **** *
   5:.\Generated_Source\PSoC4/PSoC_SPI_INT.c **** * Description:
   6:.\Generated_Source\PSoC4/PSoC_SPI_INT.c **** *  This file provides all Interrupt Service Routine (ISR) for the SPI Slave
   7:.\Generated_Source\PSoC4/PSoC_SPI_INT.c **** *  component.
   8:.\Generated_Source\PSoC4/PSoC_SPI_INT.c **** *
   9:.\Generated_Source\PSoC4/PSoC_SPI_INT.c **** * Note:
  10:.\Generated_Source\PSoC4/PSoC_SPI_INT.c **** *  None.
  11:.\Generated_Source\PSoC4/PSoC_SPI_INT.c **** *
  12:.\Generated_Source\PSoC4/PSoC_SPI_INT.c **** ********************************************************************************
  13:.\Generated_Source\PSoC4/PSoC_SPI_INT.c **** * Copyright 2008-2015, Cypress Semiconductor Corporation.  All rights reserved.
  14:.\Generated_Source\PSoC4/PSoC_SPI_INT.c **** * You may use this file only in accordance with the license, terms, conditions,
  15:.\Generated_Source\PSoC4/PSoC_SPI_INT.c **** * disclaimers, and limitations in the end user license agreement accompanying
  16:.\Generated_Source\PSoC4/PSoC_SPI_INT.c **** * the software package with which this file was provided.
  17:.\Generated_Source\PSoC4/PSoC_SPI_INT.c **** *******************************************************************************/
  18:.\Generated_Source\PSoC4/PSoC_SPI_INT.c **** 
  19:.\Generated_Source\PSoC4/PSoC_SPI_INT.c **** #include "PSoC_SPI_PVT.h"
  20:.\Generated_Source\PSoC4/PSoC_SPI_INT.c **** 
  21:.\Generated_Source\PSoC4/PSoC_SPI_INT.c **** 
  22:.\Generated_Source\PSoC4/PSoC_SPI_INT.c **** /* User code required at start of ISR */
  23:.\Generated_Source\PSoC4/PSoC_SPI_INT.c **** /* `#START PSoC_SPI_ISR_START_DEF` */
  24:.\Generated_Source\PSoC4/PSoC_SPI_INT.c **** 
  25:.\Generated_Source\PSoC4/PSoC_SPI_INT.c **** /* `#END` */
  26:.\Generated_Source\PSoC4/PSoC_SPI_INT.c **** 
  27:.\Generated_Source\PSoC4/PSoC_SPI_INT.c **** 
  28:.\Generated_Source\PSoC4/PSoC_SPI_INT.c **** /*******************************************************************************
  29:.\Generated_Source\PSoC4/PSoC_SPI_INT.c **** * Function Name: PSoC_SPI_TX_ISR
  30:.\Generated_Source\PSoC4/PSoC_SPI_INT.c **** *
  31:.\Generated_Source\PSoC4/PSoC_SPI_INT.c **** * Summary:
  32:.\Generated_Source\PSoC4/PSoC_SPI_INT.c **** *  Interrupt Service Routine for TX portion of the SPI Slave.
ARM GAS  C:\Users\JOHNSO~1\AppData\Local\Temp\ccQSzsVJ.s 			page 2


  33:.\Generated_Source\PSoC4/PSoC_SPI_INT.c **** *
  34:.\Generated_Source\PSoC4/PSoC_SPI_INT.c **** * Parameters:
  35:.\Generated_Source\PSoC4/PSoC_SPI_INT.c **** *  None.
  36:.\Generated_Source\PSoC4/PSoC_SPI_INT.c **** *
  37:.\Generated_Source\PSoC4/PSoC_SPI_INT.c **** * Return:
  38:.\Generated_Source\PSoC4/PSoC_SPI_INT.c **** *  None.
  39:.\Generated_Source\PSoC4/PSoC_SPI_INT.c **** *
  40:.\Generated_Source\PSoC4/PSoC_SPI_INT.c **** * Global variables:
  41:.\Generated_Source\PSoC4/PSoC_SPI_INT.c **** *  PSoC_SPI_txBufferWrite - used for the account of the bytes which
  42:.\Generated_Source\PSoC4/PSoC_SPI_INT.c **** *  have been written down in the TX software buffer.
  43:.\Generated_Source\PSoC4/PSoC_SPI_INT.c **** *  PSoC_SPI_txBufferRead - used for the account of the bytes which
  44:.\Generated_Source\PSoC4/PSoC_SPI_INT.c **** *  have been read from the TX software buffer, modified when exist data to
  45:.\Generated_Source\PSoC4/PSoC_SPI_INT.c **** *  sending and FIFO Not Full.
  46:.\Generated_Source\PSoC4/PSoC_SPI_INT.c **** *  PSoC_SPI_txBuffer[PSoC_SPI_TX_BUFFER_SIZE] - used to store
  47:.\Generated_Source\PSoC4/PSoC_SPI_INT.c **** *  data to sending.
  48:.\Generated_Source\PSoC4/PSoC_SPI_INT.c **** *  All described above Global variables are used when Software Buffer is used.
  49:.\Generated_Source\PSoC4/PSoC_SPI_INT.c **** *
  50:.\Generated_Source\PSoC4/PSoC_SPI_INT.c **** *******************************************************************************/
  51:.\Generated_Source\PSoC4/PSoC_SPI_INT.c **** CY_ISR(PSoC_SPI_TX_ISR)
  52:.\Generated_Source\PSoC4/PSoC_SPI_INT.c **** {
  26              		.loc 1 52 0
  27              		.cfi_startproc
  53:.\Generated_Source\PSoC4/PSoC_SPI_INT.c **** 
  54:.\Generated_Source\PSoC4/PSoC_SPI_INT.c ****     #if(PSoC_SPI_TX_SOFTWARE_BUF_ENABLED)
  55:.\Generated_Source\PSoC4/PSoC_SPI_INT.c ****         uint8 tmpStatus;
  56:.\Generated_Source\PSoC4/PSoC_SPI_INT.c ****     #endif /* (PSoC_SPI_TX_SOFTWARE_BUF_ENABLED) */
  57:.\Generated_Source\PSoC4/PSoC_SPI_INT.c **** 
  58:.\Generated_Source\PSoC4/PSoC_SPI_INT.c ****     /* User code required at start of ISR */
  59:.\Generated_Source\PSoC4/PSoC_SPI_INT.c ****     /* `#START PSoC_SPI_ISR_TX_START` */
  60:.\Generated_Source\PSoC4/PSoC_SPI_INT.c **** 
  61:.\Generated_Source\PSoC4/PSoC_SPI_INT.c ****     /* `#END` */
  62:.\Generated_Source\PSoC4/PSoC_SPI_INT.c **** 
  63:.\Generated_Source\PSoC4/PSoC_SPI_INT.c ****     #if(PSoC_SPI_TX_SOFTWARE_BUF_ENABLED)
  64:.\Generated_Source\PSoC4/PSoC_SPI_INT.c ****         /* Component interrupt service code */
  65:.\Generated_Source\PSoC4/PSoC_SPI_INT.c **** 
  66:.\Generated_Source\PSoC4/PSoC_SPI_INT.c ****         /* See if TX data buffer is not empty and there is space in TX FIFO */
  67:.\Generated_Source\PSoC4/PSoC_SPI_INT.c ****         while(PSoC_SPI_txBufferRead != PSoC_SPI_txBufferWrite)
  68:.\Generated_Source\PSoC4/PSoC_SPI_INT.c ****         {
  69:.\Generated_Source\PSoC4/PSoC_SPI_INT.c ****             tmpStatus = PSoC_SPI_GET_STATUS_TX(PSoC_SPI_swStatusTx);
  70:.\Generated_Source\PSoC4/PSoC_SPI_INT.c ****             PSoC_SPI_swStatusTx = tmpStatus;
  71:.\Generated_Source\PSoC4/PSoC_SPI_INT.c **** 
  72:.\Generated_Source\PSoC4/PSoC_SPI_INT.c ****             if ((PSoC_SPI_swStatusTx & PSoC_SPI_STS_TX_FIFO_NOT_FULL) != 0u)
  73:.\Generated_Source\PSoC4/PSoC_SPI_INT.c ****             {
  74:.\Generated_Source\PSoC4/PSoC_SPI_INT.c ****                 if(PSoC_SPI_txBufferFull == 0u)
  75:.\Generated_Source\PSoC4/PSoC_SPI_INT.c ****                 {
  76:.\Generated_Source\PSoC4/PSoC_SPI_INT.c ****                    PSoC_SPI_txBufferRead++;
  77:.\Generated_Source\PSoC4/PSoC_SPI_INT.c **** 
  78:.\Generated_Source\PSoC4/PSoC_SPI_INT.c ****                     if(PSoC_SPI_txBufferRead >= PSoC_SPI_TX_BUFFER_SIZE)
  79:.\Generated_Source\PSoC4/PSoC_SPI_INT.c ****                     {
  80:.\Generated_Source\PSoC4/PSoC_SPI_INT.c ****                         PSoC_SPI_txBufferRead = 0u;
  81:.\Generated_Source\PSoC4/PSoC_SPI_INT.c ****                     }
  82:.\Generated_Source\PSoC4/PSoC_SPI_INT.c ****                 }
  83:.\Generated_Source\PSoC4/PSoC_SPI_INT.c ****                 else
  84:.\Generated_Source\PSoC4/PSoC_SPI_INT.c ****                 {
  85:.\Generated_Source\PSoC4/PSoC_SPI_INT.c ****                     PSoC_SPI_txBufferFull = 0u;
  86:.\Generated_Source\PSoC4/PSoC_SPI_INT.c ****                 }
  87:.\Generated_Source\PSoC4/PSoC_SPI_INT.c **** 
ARM GAS  C:\Users\JOHNSO~1\AppData\Local\Temp\ccQSzsVJ.s 			page 3


  88:.\Generated_Source\PSoC4/PSoC_SPI_INT.c ****                 /* Put data element into the TX FIFO */
  89:.\Generated_Source\PSoC4/PSoC_SPI_INT.c ****                 CY_SET_REG8(PSoC_SPI_TXDATA_PTR, 
  90:.\Generated_Source\PSoC4/PSoC_SPI_INT.c ****                                              PSoC_SPI_txBuffer[PSoC_SPI_txBufferRead]);
  91:.\Generated_Source\PSoC4/PSoC_SPI_INT.c ****             }
  92:.\Generated_Source\PSoC4/PSoC_SPI_INT.c ****             else
  93:.\Generated_Source\PSoC4/PSoC_SPI_INT.c ****             {
  94:.\Generated_Source\PSoC4/PSoC_SPI_INT.c ****                 break;
  95:.\Generated_Source\PSoC4/PSoC_SPI_INT.c ****             }
  96:.\Generated_Source\PSoC4/PSoC_SPI_INT.c ****         }
  97:.\Generated_Source\PSoC4/PSoC_SPI_INT.c **** 
  98:.\Generated_Source\PSoC4/PSoC_SPI_INT.c ****         /* If Buffer is empty then disable TX FIFO status interrupt until there is data in the buff
  99:.\Generated_Source\PSoC4/PSoC_SPI_INT.c ****         if(PSoC_SPI_txBufferRead == PSoC_SPI_txBufferWrite)
 100:.\Generated_Source\PSoC4/PSoC_SPI_INT.c ****         {
 101:.\Generated_Source\PSoC4/PSoC_SPI_INT.c ****             PSoC_SPI_TX_STATUS_MASK_REG &= ((uint8)~PSoC_SPI_STS_TX_FIFO_NOT_FULL);
 102:.\Generated_Source\PSoC4/PSoC_SPI_INT.c ****         }
 103:.\Generated_Source\PSoC4/PSoC_SPI_INT.c **** 
 104:.\Generated_Source\PSoC4/PSoC_SPI_INT.c ****     #endif /* PSoC_SPI_TX_SOFTWARE_BUF_ENABLED */
 105:.\Generated_Source\PSoC4/PSoC_SPI_INT.c **** 
 106:.\Generated_Source\PSoC4/PSoC_SPI_INT.c ****     /* User code required at end of ISR (Optional) */
 107:.\Generated_Source\PSoC4/PSoC_SPI_INT.c ****     /* `#START PSoC_SPI_ISR_TX_END` */
 108:.\Generated_Source\PSoC4/PSoC_SPI_INT.c **** 
 109:.\Generated_Source\PSoC4/PSoC_SPI_INT.c ****     /* `#END` */
 110:.\Generated_Source\PSoC4/PSoC_SPI_INT.c **** 
 111:.\Generated_Source\PSoC4/PSoC_SPI_INT.c ****    }
  28              		.loc 1 111 0
  29              		@ sp needed
  30 0000 7047     		bx	lr
  31              		.cfi_endproc
  32              	.LFE2:
  33              		.size	PSoC_SPI_TX_ISR, .-PSoC_SPI_TX_ISR
  34 0002 C046     		.section	.text.PSoC_SPI_RX_ISR,"ax",%progbits
  35              		.align	2
  36              		.global	PSoC_SPI_RX_ISR
  37              		.code	16
  38              		.thumb_func
  39              		.type	PSoC_SPI_RX_ISR, %function
  40              	PSoC_SPI_RX_ISR:
  41              	.LFB3:
 112:.\Generated_Source\PSoC4/PSoC_SPI_INT.c **** 
 113:.\Generated_Source\PSoC4/PSoC_SPI_INT.c **** 
 114:.\Generated_Source\PSoC4/PSoC_SPI_INT.c **** /*******************************************************************************
 115:.\Generated_Source\PSoC4/PSoC_SPI_INT.c **** * Function Name: PSoC_SPI_RX_ISR
 116:.\Generated_Source\PSoC4/PSoC_SPI_INT.c **** *
 117:.\Generated_Source\PSoC4/PSoC_SPI_INT.c **** * Summary:
 118:.\Generated_Source\PSoC4/PSoC_SPI_INT.c **** *  Interrupt Service Routine for RX portion of the SPI Slave.
 119:.\Generated_Source\PSoC4/PSoC_SPI_INT.c **** *
 120:.\Generated_Source\PSoC4/PSoC_SPI_INT.c **** * Parameters:
 121:.\Generated_Source\PSoC4/PSoC_SPI_INT.c **** *  None.
 122:.\Generated_Source\PSoC4/PSoC_SPI_INT.c **** *
 123:.\Generated_Source\PSoC4/PSoC_SPI_INT.c **** * Return:
 124:.\Generated_Source\PSoC4/PSoC_SPI_INT.c **** *  None.
 125:.\Generated_Source\PSoC4/PSoC_SPI_INT.c **** *
 126:.\Generated_Source\PSoC4/PSoC_SPI_INT.c **** * Global variables:
 127:.\Generated_Source\PSoC4/PSoC_SPI_INT.c **** *  PSoC_SPI_rxBufferWrite - used for the account of the bytes which
 128:.\Generated_Source\PSoC4/PSoC_SPI_INT.c **** *  have been written down in the RX software buffer modified when FIFO contains
 129:.\Generated_Source\PSoC4/PSoC_SPI_INT.c **** *  new data.
 130:.\Generated_Source\PSoC4/PSoC_SPI_INT.c **** *  PSoC_SPI_rxBufferRead - used for the account of the bytes which
ARM GAS  C:\Users\JOHNSO~1\AppData\Local\Temp\ccQSzsVJ.s 			page 4


 131:.\Generated_Source\PSoC4/PSoC_SPI_INT.c **** *  have been read from the RX software buffer, modified when overflow occurred.
 132:.\Generated_Source\PSoC4/PSoC_SPI_INT.c **** *  PSoC_SPI_rxBuffer[PSoC_SPI_RX_BUFFER_SIZE] - used to store
 133:.\Generated_Source\PSoC4/PSoC_SPI_INT.c **** *  received data, modified when FIFO contains new data.
 134:.\Generated_Source\PSoC4/PSoC_SPI_INT.c **** *  All described above Global variables are used when Software Buffer is used.
 135:.\Generated_Source\PSoC4/PSoC_SPI_INT.c **** *
 136:.\Generated_Source\PSoC4/PSoC_SPI_INT.c **** *******************************************************************************/
 137:.\Generated_Source\PSoC4/PSoC_SPI_INT.c **** CY_ISR(PSoC_SPI_RX_ISR)
 138:.\Generated_Source\PSoC4/PSoC_SPI_INT.c **** {
  42              		.loc 1 138 0
  43              		.cfi_startproc
 139:.\Generated_Source\PSoC4/PSoC_SPI_INT.c ****     #if(PSoC_SPI_RX_SOFTWARE_BUF_ENABLED)
 140:.\Generated_Source\PSoC4/PSoC_SPI_INT.c ****         uint8 tmpStatus;
 141:.\Generated_Source\PSoC4/PSoC_SPI_INT.c ****         uint8 rxData;
 142:.\Generated_Source\PSoC4/PSoC_SPI_INT.c ****     #endif /* (PSoC_SPI_TX_SOFTWARE_BUF_ENABLED) */
 143:.\Generated_Source\PSoC4/PSoC_SPI_INT.c **** 
 144:.\Generated_Source\PSoC4/PSoC_SPI_INT.c ****     /* User code required at start of ISR */
 145:.\Generated_Source\PSoC4/PSoC_SPI_INT.c ****     /* `#START PSoC_SPI_RX_ISR_START` */
 146:.\Generated_Source\PSoC4/PSoC_SPI_INT.c **** 
 147:.\Generated_Source\PSoC4/PSoC_SPI_INT.c ****     /* `#END` */
 148:.\Generated_Source\PSoC4/PSoC_SPI_INT.c **** 
 149:.\Generated_Source\PSoC4/PSoC_SPI_INT.c ****     #if(PSoC_SPI_RX_SOFTWARE_BUF_ENABLED)
 150:.\Generated_Source\PSoC4/PSoC_SPI_INT.c ****         tmpStatus = PSoC_SPI_GET_STATUS_RX(PSoC_SPI_swStatusRx);
 151:.\Generated_Source\PSoC4/PSoC_SPI_INT.c ****         PSoC_SPI_swStatusRx = tmpStatus;
 152:.\Generated_Source\PSoC4/PSoC_SPI_INT.c ****         /* See if RX data FIFO has some data and if it can be moved to the RX Buffer */
 153:.\Generated_Source\PSoC4/PSoC_SPI_INT.c ****         while((PSoC_SPI_swStatusRx & PSoC_SPI_STS_RX_FIFO_NOT_EMPTY) != 0u)
 154:.\Generated_Source\PSoC4/PSoC_SPI_INT.c ****         {
 155:.\Generated_Source\PSoC4/PSoC_SPI_INT.c ****             rxData = CY_GET_REG8(PSoC_SPI_RXDATA_PTR);
 156:.\Generated_Source\PSoC4/PSoC_SPI_INT.c **** 
 157:.\Generated_Source\PSoC4/PSoC_SPI_INT.c ****             /* Set next pointer. */
 158:.\Generated_Source\PSoC4/PSoC_SPI_INT.c ****             PSoC_SPI_rxBufferWrite++;
 159:.\Generated_Source\PSoC4/PSoC_SPI_INT.c ****             if(PSoC_SPI_rxBufferWrite >= PSoC_SPI_RX_BUFFER_SIZE)
 160:.\Generated_Source\PSoC4/PSoC_SPI_INT.c ****             {
 161:.\Generated_Source\PSoC4/PSoC_SPI_INT.c ****                 PSoC_SPI_rxBufferWrite = 0u;
 162:.\Generated_Source\PSoC4/PSoC_SPI_INT.c ****             }
 163:.\Generated_Source\PSoC4/PSoC_SPI_INT.c **** 
 164:.\Generated_Source\PSoC4/PSoC_SPI_INT.c ****             if(PSoC_SPI_rxBufferWrite == PSoC_SPI_rxBufferRead)
 165:.\Generated_Source\PSoC4/PSoC_SPI_INT.c ****             {
 166:.\Generated_Source\PSoC4/PSoC_SPI_INT.c ****                 PSoC_SPI_rxBufferRead++;
 167:.\Generated_Source\PSoC4/PSoC_SPI_INT.c ****                 if(PSoC_SPI_rxBufferRead >= PSoC_SPI_RX_BUFFER_SIZE)
 168:.\Generated_Source\PSoC4/PSoC_SPI_INT.c ****                 {
 169:.\Generated_Source\PSoC4/PSoC_SPI_INT.c ****                     PSoC_SPI_rxBufferRead = 0u;
 170:.\Generated_Source\PSoC4/PSoC_SPI_INT.c ****                 }
 171:.\Generated_Source\PSoC4/PSoC_SPI_INT.c ****                 PSoC_SPI_rxBufferFull = 1u;
 172:.\Generated_Source\PSoC4/PSoC_SPI_INT.c ****             }
 173:.\Generated_Source\PSoC4/PSoC_SPI_INT.c **** 
 174:.\Generated_Source\PSoC4/PSoC_SPI_INT.c ****             /* Move data from the FIFO to the Buffer */
 175:.\Generated_Source\PSoC4/PSoC_SPI_INT.c ****             PSoC_SPI_rxBuffer[PSoC_SPI_rxBufferWrite] = rxData;
 176:.\Generated_Source\PSoC4/PSoC_SPI_INT.c **** 
 177:.\Generated_Source\PSoC4/PSoC_SPI_INT.c ****             tmpStatus = PSoC_SPI_GET_STATUS_RX(PSoC_SPI_swStatusRx);
 178:.\Generated_Source\PSoC4/PSoC_SPI_INT.c ****             PSoC_SPI_swStatusRx = tmpStatus;
 179:.\Generated_Source\PSoC4/PSoC_SPI_INT.c ****         }
 180:.\Generated_Source\PSoC4/PSoC_SPI_INT.c ****     #endif /* PSoC_SPI_RX_SOFTWARE_BUF_ENABLED */
 181:.\Generated_Source\PSoC4/PSoC_SPI_INT.c **** 
 182:.\Generated_Source\PSoC4/PSoC_SPI_INT.c ****     /* User code required at end of ISR (Optional) */
 183:.\Generated_Source\PSoC4/PSoC_SPI_INT.c ****     /* `#START PSoC_SPI_RX_ISR_END` */
 184:.\Generated_Source\PSoC4/PSoC_SPI_INT.c **** 
 185:.\Generated_Source\PSoC4/PSoC_SPI_INT.c ****     /* `#END` */
ARM GAS  C:\Users\JOHNSO~1\AppData\Local\Temp\ccQSzsVJ.s 			page 5


 186:.\Generated_Source\PSoC4/PSoC_SPI_INT.c **** 
 187:.\Generated_Source\PSoC4/PSoC_SPI_INT.c **** }
  44              		.loc 1 187 0
  45              		@ sp needed
  46 0000 7047     		bx	lr
  47              		.cfi_endproc
  48              	.LFE3:
  49              		.size	PSoC_SPI_RX_ISR, .-PSoC_SPI_RX_ISR
  50 0002 C046     		.text
  51              	.Letext0:
  52              		.section	.debug_info,"",%progbits
  53              	.Ldebug_info0:
  54 0000 A6000000 		.4byte	0xa6
  55 0004 0400     		.2byte	0x4
  56 0006 00000000 		.4byte	.Ldebug_abbrev0
  57 000a 04       		.byte	0x4
  58 000b 01       		.uleb128 0x1
  59 000c 2E010000 		.4byte	.LASF15
  60 0010 01       		.byte	0x1
  61 0011 F6000000 		.4byte	.LASF16
  62 0015 0E000000 		.4byte	.LASF17
  63 0019 00000000 		.4byte	.Ldebug_ranges0+0
  64 001d 00000000 		.4byte	0
  65 0021 00000000 		.4byte	.Ldebug_line0
  66 0025 02       		.uleb128 0x2
  67 0026 01       		.byte	0x1
  68 0027 06       		.byte	0x6
  69 0028 EA000000 		.4byte	.LASF0
  70 002c 02       		.uleb128 0x2
  71 002d 01       		.byte	0x1
  72 002e 08       		.byte	0x8
  73 002f B4000000 		.4byte	.LASF1
  74 0033 02       		.uleb128 0x2
  75 0034 02       		.byte	0x2
  76 0035 05       		.byte	0x5
  77 0036 24010000 		.4byte	.LASF2
  78 003a 02       		.uleb128 0x2
  79 003b 02       		.byte	0x2
  80 003c 07       		.byte	0x7
  81 003d D7000000 		.4byte	.LASF3
  82 0041 02       		.uleb128 0x2
  83 0042 04       		.byte	0x4
  84 0043 05       		.byte	0x5
  85 0044 C7000000 		.4byte	.LASF4
  86 0048 02       		.uleb128 0x2
  87 0049 04       		.byte	0x4
  88 004a 07       		.byte	0x7
  89 004b 7B000000 		.4byte	.LASF5
  90 004f 02       		.uleb128 0x2
  91 0050 08       		.byte	0x8
  92 0051 05       		.byte	0x5
  93 0052 00000000 		.4byte	.LASF6
  94 0056 02       		.uleb128 0x2
  95 0057 08       		.byte	0x8
  96 0058 07       		.byte	0x7
  97 0059 8D000000 		.4byte	.LASF7
  98 005d 03       		.uleb128 0x3
ARM GAS  C:\Users\JOHNSO~1\AppData\Local\Temp\ccQSzsVJ.s 			page 6


  99 005e 04       		.byte	0x4
 100 005f 05       		.byte	0x5
 101 0060 696E7400 		.ascii	"int\000"
 102 0064 02       		.uleb128 0x2
 103 0065 04       		.byte	0x4
 104 0066 07       		.byte	0x7
 105 0067 6E000000 		.4byte	.LASF8
 106 006b 02       		.uleb128 0x2
 107 006c 04       		.byte	0x4
 108 006d 04       		.byte	0x4
 109 006e 1E010000 		.4byte	.LASF9
 110 0072 02       		.uleb128 0x2
 111 0073 08       		.byte	0x8
 112 0074 04       		.byte	0x4
 113 0075 D0000000 		.4byte	.LASF10
 114 0079 02       		.uleb128 0x2
 115 007a 01       		.byte	0x1
 116 007b 08       		.byte	0x8
 117 007c C2000000 		.4byte	.LASF11
 118 0080 02       		.uleb128 0x2
 119 0081 04       		.byte	0x4
 120 0082 07       		.byte	0x7
 121 0083 AA010000 		.4byte	.LASF12
 122 0087 04       		.uleb128 0x4
 123 0088 B3010000 		.4byte	.LASF13
 124 008c 01       		.byte	0x1
 125 008d 33       		.byte	0x33
 126 008e 00000000 		.4byte	.LFB2
 127 0092 02000000 		.4byte	.LFE2-.LFB2
 128 0096 01       		.uleb128 0x1
 129 0097 9C       		.byte	0x9c
 130 0098 04       		.uleb128 0x4
 131 0099 A4000000 		.4byte	.LASF14
 132 009d 01       		.byte	0x1
 133 009e 89       		.byte	0x89
 134 009f 00000000 		.4byte	.LFB3
 135 00a3 02000000 		.4byte	.LFE3-.LFB3
 136 00a7 01       		.uleb128 0x1
 137 00a8 9C       		.byte	0x9c
 138 00a9 00       		.byte	0
 139              		.section	.debug_abbrev,"",%progbits
 140              	.Ldebug_abbrev0:
 141 0000 01       		.uleb128 0x1
 142 0001 11       		.uleb128 0x11
 143 0002 01       		.byte	0x1
 144 0003 25       		.uleb128 0x25
 145 0004 0E       		.uleb128 0xe
 146 0005 13       		.uleb128 0x13
 147 0006 0B       		.uleb128 0xb
 148 0007 03       		.uleb128 0x3
 149 0008 0E       		.uleb128 0xe
 150 0009 1B       		.uleb128 0x1b
 151 000a 0E       		.uleb128 0xe
 152 000b 55       		.uleb128 0x55
 153 000c 17       		.uleb128 0x17
 154 000d 11       		.uleb128 0x11
 155 000e 01       		.uleb128 0x1
ARM GAS  C:\Users\JOHNSO~1\AppData\Local\Temp\ccQSzsVJ.s 			page 7


 156 000f 10       		.uleb128 0x10
 157 0010 17       		.uleb128 0x17
 158 0011 00       		.byte	0
 159 0012 00       		.byte	0
 160 0013 02       		.uleb128 0x2
 161 0014 24       		.uleb128 0x24
 162 0015 00       		.byte	0
 163 0016 0B       		.uleb128 0xb
 164 0017 0B       		.uleb128 0xb
 165 0018 3E       		.uleb128 0x3e
 166 0019 0B       		.uleb128 0xb
 167 001a 03       		.uleb128 0x3
 168 001b 0E       		.uleb128 0xe
 169 001c 00       		.byte	0
 170 001d 00       		.byte	0
 171 001e 03       		.uleb128 0x3
 172 001f 24       		.uleb128 0x24
 173 0020 00       		.byte	0
 174 0021 0B       		.uleb128 0xb
 175 0022 0B       		.uleb128 0xb
 176 0023 3E       		.uleb128 0x3e
 177 0024 0B       		.uleb128 0xb
 178 0025 03       		.uleb128 0x3
 179 0026 08       		.uleb128 0x8
 180 0027 00       		.byte	0
 181 0028 00       		.byte	0
 182 0029 04       		.uleb128 0x4
 183 002a 2E       		.uleb128 0x2e
 184 002b 00       		.byte	0
 185 002c 3F       		.uleb128 0x3f
 186 002d 19       		.uleb128 0x19
 187 002e 03       		.uleb128 0x3
 188 002f 0E       		.uleb128 0xe
 189 0030 3A       		.uleb128 0x3a
 190 0031 0B       		.uleb128 0xb
 191 0032 3B       		.uleb128 0x3b
 192 0033 0B       		.uleb128 0xb
 193 0034 27       		.uleb128 0x27
 194 0035 19       		.uleb128 0x19
 195 0036 11       		.uleb128 0x11
 196 0037 01       		.uleb128 0x1
 197 0038 12       		.uleb128 0x12
 198 0039 06       		.uleb128 0x6
 199 003a 40       		.uleb128 0x40
 200 003b 18       		.uleb128 0x18
 201 003c 9742     		.uleb128 0x2117
 202 003e 19       		.uleb128 0x19
 203 003f 00       		.byte	0
 204 0040 00       		.byte	0
 205 0041 00       		.byte	0
 206              		.section	.debug_aranges,"",%progbits
 207 0000 24000000 		.4byte	0x24
 208 0004 0200     		.2byte	0x2
 209 0006 00000000 		.4byte	.Ldebug_info0
 210 000a 04       		.byte	0x4
 211 000b 00       		.byte	0
 212 000c 0000     		.2byte	0
ARM GAS  C:\Users\JOHNSO~1\AppData\Local\Temp\ccQSzsVJ.s 			page 8


 213 000e 0000     		.2byte	0
 214 0010 00000000 		.4byte	.LFB2
 215 0014 02000000 		.4byte	.LFE2-.LFB2
 216 0018 00000000 		.4byte	.LFB3
 217 001c 02000000 		.4byte	.LFE3-.LFB3
 218 0020 00000000 		.4byte	0
 219 0024 00000000 		.4byte	0
 220              		.section	.debug_ranges,"",%progbits
 221              	.Ldebug_ranges0:
 222 0000 00000000 		.4byte	.LFB2
 223 0004 02000000 		.4byte	.LFE2
 224 0008 00000000 		.4byte	.LFB3
 225 000c 02000000 		.4byte	.LFE3
 226 0010 00000000 		.4byte	0
 227 0014 00000000 		.4byte	0
 228              		.section	.debug_line,"",%progbits
 229              	.Ldebug_line0:
 230 0000 69000000 		.section	.debug_str,"MS",%progbits,1
 230      02003E00 
 230      00000201 
 230      FB0E0D00 
 230      01010101 
 231              	.LASF6:
 232 0000 6C6F6E67 		.ascii	"long long int\000"
 232      206C6F6E 
 232      6720696E 
 232      7400
 233              	.LASF17:
 234 000e 443A5C4D 		.ascii	"D:\\MyDocs\\Documents\\PSoC Creator\\Senior Design "
 234      79446F63 
 234      735C446F 
 234      63756D65 
 234      6E74735C 
 235 003d 32303135 		.ascii	"2015_2016 Pneumatic Walking Robot\\Design01.cydsn\000"
 235      5F323031 
 235      3620506E 
 235      65756D61 
 235      74696320 
 236              	.LASF8:
 237 006e 756E7369 		.ascii	"unsigned int\000"
 237      676E6564 
 237      20696E74 
 237      00
 238              	.LASF5:
 239 007b 6C6F6E67 		.ascii	"long unsigned int\000"
 239      20756E73 
 239      69676E65 
 239      6420696E 
 239      7400
 240              	.LASF7:
 241 008d 6C6F6E67 		.ascii	"long long unsigned int\000"
 241      206C6F6E 
 241      6720756E 
 241      7369676E 
 241      65642069 
 242              	.LASF14:
 243 00a4 50536F43 		.ascii	"PSoC_SPI_RX_ISR\000"
ARM GAS  C:\Users\JOHNSO~1\AppData\Local\Temp\ccQSzsVJ.s 			page 9


 243      5F535049 
 243      5F52585F 
 243      49535200 
 244              	.LASF1:
 245 00b4 756E7369 		.ascii	"unsigned char\000"
 245      676E6564 
 245      20636861 
 245      7200
 246              	.LASF11:
 247 00c2 63686172 		.ascii	"char\000"
 247      00
 248              	.LASF4:
 249 00c7 6C6F6E67 		.ascii	"long int\000"
 249      20696E74 
 249      00
 250              	.LASF10:
 251 00d0 646F7562 		.ascii	"double\000"
 251      6C6500
 252              	.LASF3:
 253 00d7 73686F72 		.ascii	"short unsigned int\000"
 253      7420756E 
 253      7369676E 
 253      65642069 
 253      6E7400
 254              	.LASF0:
 255 00ea 7369676E 		.ascii	"signed char\000"
 255      65642063 
 255      68617200 
 256              	.LASF16:
 257 00f6 2E5C4765 		.ascii	".\\Generated_Source\\PSoC4\\PSoC_SPI_INT.c\000"
 257      6E657261 
 257      7465645F 
 257      536F7572 
 257      63655C50 
 258              	.LASF9:
 259 011e 666C6F61 		.ascii	"float\000"
 259      7400
 260              	.LASF2:
 261 0124 73686F72 		.ascii	"short int\000"
 261      7420696E 
 261      7400
 262              	.LASF15:
 263 012e 474E5520 		.ascii	"GNU C 4.8.4 20140526 (release) [ARM/embedded-4_8-br"
 263      4320342E 
 263      382E3420 
 263      32303134 
 263      30353236 
 264 0161 616E6368 		.ascii	"anch revision 211358] -mcpu=cortex-m0 -mthumb -g -O"
 264      20726576 
 264      6973696F 
 264      6E203231 
 264      31333538 
 265 0194 67202D66 		.ascii	"g -ffunction-sections\000"
 265      66756E63 
 265      74696F6E 
 265      2D736563 
 265      74696F6E 
ARM GAS  C:\Users\JOHNSO~1\AppData\Local\Temp\ccQSzsVJ.s 			page 10


 266              	.LASF12:
 267 01aa 73697A65 		.ascii	"sizetype\000"
 267      74797065 
 267      00
 268              	.LASF13:
 269 01b3 50536F43 		.ascii	"PSoC_SPI_TX_ISR\000"
 269      5F535049 
 269      5F54585F 
 269      49535200 
 270              		.ident	"GCC: (GNU Tools for ARM Embedded Processors) 4.8.4 20140526 (release) [ARM/embedded-4_8-br
