ARM GAS  C:\Users\JOHNSO~1\AppData\Local\Temp\ccGqWBaL.s 			page 1


   1              		.cpu cortex-m0
   2              		.fpu softvfp
   3              		.eabi_attribute 20, 1
   4              		.eabi_attribute 21, 1
   5              		.eabi_attribute 23, 3
   6              		.eabi_attribute 24, 1
   7              		.eabi_attribute 25, 1
   8              		.eabi_attribute 26, 1
   9              		.eabi_attribute 30, 1
  10              		.eabi_attribute 34, 0
  11              		.eabi_attribute 18, 4
  12              		.code	16
  13              		.file	"Input_1_Int.c"
  14              		.text
  15              	.Ltext0:
  16              		.cfi_sections	.debug_frame
  17              		.section	.text.Input_1_Int_Interrupt,"ax",%progbits
  18              		.align	2
  19              		.global	Input_1_Int_Interrupt
  20              		.code	16
  21              		.thumb_func
  22              		.type	Input_1_Int_Interrupt, %function
  23              	Input_1_Int_Interrupt:
  24              	.LFB5:
  25              		.file 1 ".\\Generated_Source\\PSoC4\\Input_1_Int.c"
   1:.\Generated_Source\PSoC4/Input_1_Int.c **** /*******************************************************************************
   2:.\Generated_Source\PSoC4/Input_1_Int.c **** * File Name: Input_1_Int.c  
   3:.\Generated_Source\PSoC4/Input_1_Int.c **** * Version 1.70
   4:.\Generated_Source\PSoC4/Input_1_Int.c **** *
   5:.\Generated_Source\PSoC4/Input_1_Int.c **** *  Description:
   6:.\Generated_Source\PSoC4/Input_1_Int.c **** *   API for controlling the state of an interrupt.
   7:.\Generated_Source\PSoC4/Input_1_Int.c **** *
   8:.\Generated_Source\PSoC4/Input_1_Int.c **** *
   9:.\Generated_Source\PSoC4/Input_1_Int.c **** *  Note:
  10:.\Generated_Source\PSoC4/Input_1_Int.c **** *
  11:.\Generated_Source\PSoC4/Input_1_Int.c **** ********************************************************************************
  12:.\Generated_Source\PSoC4/Input_1_Int.c **** * Copyright 2008-2015, Cypress Semiconductor Corporation.  All rights reserved.
  13:.\Generated_Source\PSoC4/Input_1_Int.c **** * You may use this file only in accordance with the license, terms, conditions, 
  14:.\Generated_Source\PSoC4/Input_1_Int.c **** * disclaimers, and limitations in the end user license agreement accompanying 
  15:.\Generated_Source\PSoC4/Input_1_Int.c **** * the software package with which this file was provided.
  16:.\Generated_Source\PSoC4/Input_1_Int.c **** *******************************************************************************/
  17:.\Generated_Source\PSoC4/Input_1_Int.c **** 
  18:.\Generated_Source\PSoC4/Input_1_Int.c **** 
  19:.\Generated_Source\PSoC4/Input_1_Int.c **** #include <cydevice_trm.h>
  20:.\Generated_Source\PSoC4/Input_1_Int.c **** #include <CyLib.h>
  21:.\Generated_Source\PSoC4/Input_1_Int.c **** #include <Input_1_Int.h>
  22:.\Generated_Source\PSoC4/Input_1_Int.c **** 
  23:.\Generated_Source\PSoC4/Input_1_Int.c **** #if !defined(Input_1_Int__REMOVED) /* Check for removal by optimization */
  24:.\Generated_Source\PSoC4/Input_1_Int.c **** 
  25:.\Generated_Source\PSoC4/Input_1_Int.c **** /*******************************************************************************
  26:.\Generated_Source\PSoC4/Input_1_Int.c **** *  Place your includes, defines and code here 
  27:.\Generated_Source\PSoC4/Input_1_Int.c **** ********************************************************************************/
  28:.\Generated_Source\PSoC4/Input_1_Int.c **** /* `#START Input_1_Int_intc` */
  29:.\Generated_Source\PSoC4/Input_1_Int.c **** 
  30:.\Generated_Source\PSoC4/Input_1_Int.c **** /* `#END` */
  31:.\Generated_Source\PSoC4/Input_1_Int.c **** 
  32:.\Generated_Source\PSoC4/Input_1_Int.c **** extern cyisraddress CyRamVectors[CYINT_IRQ_BASE + CY_NUM_INTERRUPTS];
ARM GAS  C:\Users\JOHNSO~1\AppData\Local\Temp\ccGqWBaL.s 			page 2


  33:.\Generated_Source\PSoC4/Input_1_Int.c **** 
  34:.\Generated_Source\PSoC4/Input_1_Int.c **** /* Declared in startup, used to set unused interrupts to. */
  35:.\Generated_Source\PSoC4/Input_1_Int.c **** CY_ISR_PROTO(IntDefaultHandler);
  36:.\Generated_Source\PSoC4/Input_1_Int.c **** 
  37:.\Generated_Source\PSoC4/Input_1_Int.c **** 
  38:.\Generated_Source\PSoC4/Input_1_Int.c **** /*******************************************************************************
  39:.\Generated_Source\PSoC4/Input_1_Int.c **** * Function Name: Input_1_Int_Start
  40:.\Generated_Source\PSoC4/Input_1_Int.c **** ********************************************************************************
  41:.\Generated_Source\PSoC4/Input_1_Int.c **** *
  42:.\Generated_Source\PSoC4/Input_1_Int.c **** * Summary:
  43:.\Generated_Source\PSoC4/Input_1_Int.c **** *  Set up the interrupt and enable it. This function disables the interrupt, 
  44:.\Generated_Source\PSoC4/Input_1_Int.c **** *  sets the default interrupt vector, sets the priority from the value in the
  45:.\Generated_Source\PSoC4/Input_1_Int.c **** *  Design Wide Resources Interrupt Editor, then enables the interrupt to the 
  46:.\Generated_Source\PSoC4/Input_1_Int.c **** *  interrupt controller.
  47:.\Generated_Source\PSoC4/Input_1_Int.c **** *
  48:.\Generated_Source\PSoC4/Input_1_Int.c **** * Parameters:  
  49:.\Generated_Source\PSoC4/Input_1_Int.c **** *   None
  50:.\Generated_Source\PSoC4/Input_1_Int.c **** *
  51:.\Generated_Source\PSoC4/Input_1_Int.c **** * Return:
  52:.\Generated_Source\PSoC4/Input_1_Int.c **** *   None
  53:.\Generated_Source\PSoC4/Input_1_Int.c **** *
  54:.\Generated_Source\PSoC4/Input_1_Int.c **** *******************************************************************************/
  55:.\Generated_Source\PSoC4/Input_1_Int.c **** void Input_1_Int_Start(void)
  56:.\Generated_Source\PSoC4/Input_1_Int.c **** {
  57:.\Generated_Source\PSoC4/Input_1_Int.c ****     /* For all we know the interrupt is active. */
  58:.\Generated_Source\PSoC4/Input_1_Int.c ****     Input_1_Int_Disable();
  59:.\Generated_Source\PSoC4/Input_1_Int.c **** 
  60:.\Generated_Source\PSoC4/Input_1_Int.c ****     /* Set the ISR to point to the Input_1_Int Interrupt. */
  61:.\Generated_Source\PSoC4/Input_1_Int.c ****     Input_1_Int_SetVector(&Input_1_Int_Interrupt);
  62:.\Generated_Source\PSoC4/Input_1_Int.c **** 
  63:.\Generated_Source\PSoC4/Input_1_Int.c ****     /* Set the priority. */
  64:.\Generated_Source\PSoC4/Input_1_Int.c ****     Input_1_Int_SetPriority((uint8)Input_1_Int_INTC_PRIOR_NUMBER);
  65:.\Generated_Source\PSoC4/Input_1_Int.c **** 
  66:.\Generated_Source\PSoC4/Input_1_Int.c ****     /* Enable it. */
  67:.\Generated_Source\PSoC4/Input_1_Int.c ****     Input_1_Int_Enable();
  68:.\Generated_Source\PSoC4/Input_1_Int.c **** }
  69:.\Generated_Source\PSoC4/Input_1_Int.c **** 
  70:.\Generated_Source\PSoC4/Input_1_Int.c **** 
  71:.\Generated_Source\PSoC4/Input_1_Int.c **** /*******************************************************************************
  72:.\Generated_Source\PSoC4/Input_1_Int.c **** * Function Name: Input_1_Int_StartEx
  73:.\Generated_Source\PSoC4/Input_1_Int.c **** ********************************************************************************
  74:.\Generated_Source\PSoC4/Input_1_Int.c **** *
  75:.\Generated_Source\PSoC4/Input_1_Int.c **** * Summary:
  76:.\Generated_Source\PSoC4/Input_1_Int.c **** *  Sets up the interrupt and enables it. This function disables the interrupt,
  77:.\Generated_Source\PSoC4/Input_1_Int.c **** *  sets the interrupt vector based on the address passed in, sets the priority 
  78:.\Generated_Source\PSoC4/Input_1_Int.c **** *  from the value in the Design Wide Resources Interrupt Editor, then enables 
  79:.\Generated_Source\PSoC4/Input_1_Int.c **** *  the interrupt to the interrupt controller.
  80:.\Generated_Source\PSoC4/Input_1_Int.c **** *  
  81:.\Generated_Source\PSoC4/Input_1_Int.c **** *  When defining ISR functions, the CY_ISR and CY_ISR_PROTO macros should be 
  82:.\Generated_Source\PSoC4/Input_1_Int.c **** *  used to provide consistent definition across compilers:
  83:.\Generated_Source\PSoC4/Input_1_Int.c **** *  
  84:.\Generated_Source\PSoC4/Input_1_Int.c **** *  Function definition example:
  85:.\Generated_Source\PSoC4/Input_1_Int.c **** *   CY_ISR(MyISR)
  86:.\Generated_Source\PSoC4/Input_1_Int.c **** *   {
  87:.\Generated_Source\PSoC4/Input_1_Int.c **** *   }
  88:.\Generated_Source\PSoC4/Input_1_Int.c **** *   Function prototype example:
  89:.\Generated_Source\PSoC4/Input_1_Int.c **** *   CY_ISR_PROTO(MyISR);
ARM GAS  C:\Users\JOHNSO~1\AppData\Local\Temp\ccGqWBaL.s 			page 3


  90:.\Generated_Source\PSoC4/Input_1_Int.c **** *
  91:.\Generated_Source\PSoC4/Input_1_Int.c **** * Parameters:  
  92:.\Generated_Source\PSoC4/Input_1_Int.c **** *   address: Address of the ISR to set in the interrupt vector table.
  93:.\Generated_Source\PSoC4/Input_1_Int.c **** *
  94:.\Generated_Source\PSoC4/Input_1_Int.c **** * Return:
  95:.\Generated_Source\PSoC4/Input_1_Int.c **** *   None
  96:.\Generated_Source\PSoC4/Input_1_Int.c **** *
  97:.\Generated_Source\PSoC4/Input_1_Int.c **** *******************************************************************************/
  98:.\Generated_Source\PSoC4/Input_1_Int.c **** void Input_1_Int_StartEx(cyisraddress address)
  99:.\Generated_Source\PSoC4/Input_1_Int.c **** {
 100:.\Generated_Source\PSoC4/Input_1_Int.c ****     /* For all we know the interrupt is active. */
 101:.\Generated_Source\PSoC4/Input_1_Int.c ****     Input_1_Int_Disable();
 102:.\Generated_Source\PSoC4/Input_1_Int.c **** 
 103:.\Generated_Source\PSoC4/Input_1_Int.c ****     /* Set the ISR to point to the Input_1_Int Interrupt. */
 104:.\Generated_Source\PSoC4/Input_1_Int.c ****     Input_1_Int_SetVector(address);
 105:.\Generated_Source\PSoC4/Input_1_Int.c **** 
 106:.\Generated_Source\PSoC4/Input_1_Int.c ****     /* Set the priority. */
 107:.\Generated_Source\PSoC4/Input_1_Int.c ****     Input_1_Int_SetPriority((uint8)Input_1_Int_INTC_PRIOR_NUMBER);
 108:.\Generated_Source\PSoC4/Input_1_Int.c **** 
 109:.\Generated_Source\PSoC4/Input_1_Int.c ****     /* Enable it. */
 110:.\Generated_Source\PSoC4/Input_1_Int.c ****     Input_1_Int_Enable();
 111:.\Generated_Source\PSoC4/Input_1_Int.c **** }
 112:.\Generated_Source\PSoC4/Input_1_Int.c **** 
 113:.\Generated_Source\PSoC4/Input_1_Int.c **** 
 114:.\Generated_Source\PSoC4/Input_1_Int.c **** /*******************************************************************************
 115:.\Generated_Source\PSoC4/Input_1_Int.c **** * Function Name: Input_1_Int_Stop
 116:.\Generated_Source\PSoC4/Input_1_Int.c **** ********************************************************************************
 117:.\Generated_Source\PSoC4/Input_1_Int.c **** *
 118:.\Generated_Source\PSoC4/Input_1_Int.c **** * Summary:
 119:.\Generated_Source\PSoC4/Input_1_Int.c **** *   Disables and removes the interrupt.
 120:.\Generated_Source\PSoC4/Input_1_Int.c **** *
 121:.\Generated_Source\PSoC4/Input_1_Int.c **** * Parameters:  
 122:.\Generated_Source\PSoC4/Input_1_Int.c **** *   None
 123:.\Generated_Source\PSoC4/Input_1_Int.c **** *
 124:.\Generated_Source\PSoC4/Input_1_Int.c **** * Return:
 125:.\Generated_Source\PSoC4/Input_1_Int.c **** *   None
 126:.\Generated_Source\PSoC4/Input_1_Int.c **** *
 127:.\Generated_Source\PSoC4/Input_1_Int.c **** *******************************************************************************/
 128:.\Generated_Source\PSoC4/Input_1_Int.c **** void Input_1_Int_Stop(void)
 129:.\Generated_Source\PSoC4/Input_1_Int.c **** {
 130:.\Generated_Source\PSoC4/Input_1_Int.c ****     /* Disable this interrupt. */
 131:.\Generated_Source\PSoC4/Input_1_Int.c ****     Input_1_Int_Disable();
 132:.\Generated_Source\PSoC4/Input_1_Int.c **** 
 133:.\Generated_Source\PSoC4/Input_1_Int.c ****     /* Set the ISR to point to the passive one. */
 134:.\Generated_Source\PSoC4/Input_1_Int.c ****     Input_1_Int_SetVector(&IntDefaultHandler);
 135:.\Generated_Source\PSoC4/Input_1_Int.c **** }
 136:.\Generated_Source\PSoC4/Input_1_Int.c **** 
 137:.\Generated_Source\PSoC4/Input_1_Int.c **** 
 138:.\Generated_Source\PSoC4/Input_1_Int.c **** /*******************************************************************************
 139:.\Generated_Source\PSoC4/Input_1_Int.c **** * Function Name: Input_1_Int_Interrupt
 140:.\Generated_Source\PSoC4/Input_1_Int.c **** ********************************************************************************
 141:.\Generated_Source\PSoC4/Input_1_Int.c **** *
 142:.\Generated_Source\PSoC4/Input_1_Int.c **** * Summary:
 143:.\Generated_Source\PSoC4/Input_1_Int.c **** *   The default Interrupt Service Routine for Input_1_Int.
 144:.\Generated_Source\PSoC4/Input_1_Int.c **** *
 145:.\Generated_Source\PSoC4/Input_1_Int.c **** *   Add custom code between the START and END comments to keep the next version
 146:.\Generated_Source\PSoC4/Input_1_Int.c **** *   of this file from over-writing your code.
ARM GAS  C:\Users\JOHNSO~1\AppData\Local\Temp\ccGqWBaL.s 			page 4


 147:.\Generated_Source\PSoC4/Input_1_Int.c **** *
 148:.\Generated_Source\PSoC4/Input_1_Int.c **** *   Note You may use either the default ISR by using this API, or you may define
 149:.\Generated_Source\PSoC4/Input_1_Int.c **** *   your own separate ISR through ISR_StartEx().
 150:.\Generated_Source\PSoC4/Input_1_Int.c **** *
 151:.\Generated_Source\PSoC4/Input_1_Int.c **** * Parameters:  
 152:.\Generated_Source\PSoC4/Input_1_Int.c **** *   None
 153:.\Generated_Source\PSoC4/Input_1_Int.c **** *
 154:.\Generated_Source\PSoC4/Input_1_Int.c **** * Return:
 155:.\Generated_Source\PSoC4/Input_1_Int.c **** *   None
 156:.\Generated_Source\PSoC4/Input_1_Int.c **** *
 157:.\Generated_Source\PSoC4/Input_1_Int.c **** *******************************************************************************/
 158:.\Generated_Source\PSoC4/Input_1_Int.c **** CY_ISR(Input_1_Int_Interrupt)
 159:.\Generated_Source\PSoC4/Input_1_Int.c **** {
  26              		.loc 1 159 0
  27              		.cfi_startproc
 160:.\Generated_Source\PSoC4/Input_1_Int.c ****     /*  Place your Interrupt code here. */
 161:.\Generated_Source\PSoC4/Input_1_Int.c ****     /* `#START Input_1_Int_Interrupt` */
 162:.\Generated_Source\PSoC4/Input_1_Int.c **** 
 163:.\Generated_Source\PSoC4/Input_1_Int.c ****     /* `#END` */
 164:.\Generated_Source\PSoC4/Input_1_Int.c **** }
  28              		.loc 1 164 0
  29              		@ sp needed
  30 0000 7047     		bx	lr
  31              		.cfi_endproc
  32              	.LFE5:
  33              		.size	Input_1_Int_Interrupt, .-Input_1_Int_Interrupt
  34 0002 C046     		.section	.text.Input_1_Int_SetVector,"ax",%progbits
  35              		.align	2
  36              		.global	Input_1_Int_SetVector
  37              		.code	16
  38              		.thumb_func
  39              		.type	Input_1_Int_SetVector, %function
  40              	Input_1_Int_SetVector:
  41              	.LFB6:
 165:.\Generated_Source\PSoC4/Input_1_Int.c **** 
 166:.\Generated_Source\PSoC4/Input_1_Int.c **** 
 167:.\Generated_Source\PSoC4/Input_1_Int.c **** /*******************************************************************************
 168:.\Generated_Source\PSoC4/Input_1_Int.c **** * Function Name: Input_1_Int_SetVector
 169:.\Generated_Source\PSoC4/Input_1_Int.c **** ********************************************************************************
 170:.\Generated_Source\PSoC4/Input_1_Int.c **** *
 171:.\Generated_Source\PSoC4/Input_1_Int.c **** * Summary:
 172:.\Generated_Source\PSoC4/Input_1_Int.c **** *   Change the ISR vector for the Interrupt. Note calling Input_1_Int_Start
 173:.\Generated_Source\PSoC4/Input_1_Int.c **** *   will override any effect this method would have had. To set the vector 
 174:.\Generated_Source\PSoC4/Input_1_Int.c **** *   before the component has been started use Input_1_Int_StartEx instead.
 175:.\Generated_Source\PSoC4/Input_1_Int.c **** * 
 176:.\Generated_Source\PSoC4/Input_1_Int.c **** *   When defining ISR functions, the CY_ISR and CY_ISR_PROTO macros should be 
 177:.\Generated_Source\PSoC4/Input_1_Int.c **** *   used to provide consistent definition across compilers:
 178:.\Generated_Source\PSoC4/Input_1_Int.c **** *
 179:.\Generated_Source\PSoC4/Input_1_Int.c **** *   Function definition example:
 180:.\Generated_Source\PSoC4/Input_1_Int.c **** *   CY_ISR(MyISR)
 181:.\Generated_Source\PSoC4/Input_1_Int.c **** *   {
 182:.\Generated_Source\PSoC4/Input_1_Int.c **** *   }
 183:.\Generated_Source\PSoC4/Input_1_Int.c **** *
 184:.\Generated_Source\PSoC4/Input_1_Int.c **** *   Function prototype example:
 185:.\Generated_Source\PSoC4/Input_1_Int.c **** *     CY_ISR_PROTO(MyISR);
 186:.\Generated_Source\PSoC4/Input_1_Int.c **** *
 187:.\Generated_Source\PSoC4/Input_1_Int.c **** * Parameters:
ARM GAS  C:\Users\JOHNSO~1\AppData\Local\Temp\ccGqWBaL.s 			page 5


 188:.\Generated_Source\PSoC4/Input_1_Int.c **** *   address: Address of the ISR to set in the interrupt vector table.
 189:.\Generated_Source\PSoC4/Input_1_Int.c **** *
 190:.\Generated_Source\PSoC4/Input_1_Int.c **** * Return:
 191:.\Generated_Source\PSoC4/Input_1_Int.c **** *   None
 192:.\Generated_Source\PSoC4/Input_1_Int.c **** *
 193:.\Generated_Source\PSoC4/Input_1_Int.c **** *******************************************************************************/
 194:.\Generated_Source\PSoC4/Input_1_Int.c **** void Input_1_Int_SetVector(cyisraddress address)
 195:.\Generated_Source\PSoC4/Input_1_Int.c **** {
  42              		.loc 1 195 0
  43              		.cfi_startproc
  44              	.LVL0:
 196:.\Generated_Source\PSoC4/Input_1_Int.c ****     CyRamVectors[CYINT_IRQ_BASE + Input_1_Int__INTC_NUMBER] = address;
  45              		.loc 1 196 0
  46 0000 014B     		ldr	r3, .L3
  47 0002 9864     		str	r0, [r3, #72]
 197:.\Generated_Source\PSoC4/Input_1_Int.c **** }
  48              		.loc 1 197 0
  49              		@ sp needed
  50 0004 7047     		bx	lr
  51              	.L4:
  52 0006 C046     		.align	2
  53              	.L3:
  54 0008 00000000 		.word	CyRamVectors
  55              		.cfi_endproc
  56              	.LFE6:
  57              		.size	Input_1_Int_SetVector, .-Input_1_Int_SetVector
  58              		.section	.text.Input_1_Int_GetVector,"ax",%progbits
  59              		.align	2
  60              		.global	Input_1_Int_GetVector
  61              		.code	16
  62              		.thumb_func
  63              		.type	Input_1_Int_GetVector, %function
  64              	Input_1_Int_GetVector:
  65              	.LFB7:
 198:.\Generated_Source\PSoC4/Input_1_Int.c **** 
 199:.\Generated_Source\PSoC4/Input_1_Int.c **** 
 200:.\Generated_Source\PSoC4/Input_1_Int.c **** /*******************************************************************************
 201:.\Generated_Source\PSoC4/Input_1_Int.c **** * Function Name: Input_1_Int_GetVector
 202:.\Generated_Source\PSoC4/Input_1_Int.c **** ********************************************************************************
 203:.\Generated_Source\PSoC4/Input_1_Int.c **** *
 204:.\Generated_Source\PSoC4/Input_1_Int.c **** * Summary:
 205:.\Generated_Source\PSoC4/Input_1_Int.c **** *   Gets the "address" of the current ISR vector for the Interrupt.
 206:.\Generated_Source\PSoC4/Input_1_Int.c **** *
 207:.\Generated_Source\PSoC4/Input_1_Int.c **** * Parameters:
 208:.\Generated_Source\PSoC4/Input_1_Int.c **** *   None
 209:.\Generated_Source\PSoC4/Input_1_Int.c **** *
 210:.\Generated_Source\PSoC4/Input_1_Int.c **** * Return:
 211:.\Generated_Source\PSoC4/Input_1_Int.c **** *   Address of the ISR in the interrupt vector table.
 212:.\Generated_Source\PSoC4/Input_1_Int.c **** *
 213:.\Generated_Source\PSoC4/Input_1_Int.c **** *******************************************************************************/
 214:.\Generated_Source\PSoC4/Input_1_Int.c **** cyisraddress Input_1_Int_GetVector(void)
 215:.\Generated_Source\PSoC4/Input_1_Int.c **** {
  66              		.loc 1 215 0
  67              		.cfi_startproc
 216:.\Generated_Source\PSoC4/Input_1_Int.c ****     return CyRamVectors[CYINT_IRQ_BASE + Input_1_Int__INTC_NUMBER];
  68              		.loc 1 216 0
  69 0000 014B     		ldr	r3, .L6
ARM GAS  C:\Users\JOHNSO~1\AppData\Local\Temp\ccGqWBaL.s 			page 6


  70 0002 986C     		ldr	r0, [r3, #72]
 217:.\Generated_Source\PSoC4/Input_1_Int.c **** }
  71              		.loc 1 217 0
  72              		@ sp needed
  73 0004 7047     		bx	lr
  74              	.L7:
  75 0006 C046     		.align	2
  76              	.L6:
  77 0008 00000000 		.word	CyRamVectors
  78              		.cfi_endproc
  79              	.LFE7:
  80              		.size	Input_1_Int_GetVector, .-Input_1_Int_GetVector
  81              		.section	.text.Input_1_Int_SetPriority,"ax",%progbits
  82              		.align	2
  83              		.global	Input_1_Int_SetPriority
  84              		.code	16
  85              		.thumb_func
  86              		.type	Input_1_Int_SetPriority, %function
  87              	Input_1_Int_SetPriority:
  88              	.LFB8:
 218:.\Generated_Source\PSoC4/Input_1_Int.c **** 
 219:.\Generated_Source\PSoC4/Input_1_Int.c **** 
 220:.\Generated_Source\PSoC4/Input_1_Int.c **** /*******************************************************************************
 221:.\Generated_Source\PSoC4/Input_1_Int.c **** * Function Name: Input_1_Int_SetPriority
 222:.\Generated_Source\PSoC4/Input_1_Int.c **** ********************************************************************************
 223:.\Generated_Source\PSoC4/Input_1_Int.c **** *
 224:.\Generated_Source\PSoC4/Input_1_Int.c **** * Summary:
 225:.\Generated_Source\PSoC4/Input_1_Int.c **** *   Sets the Priority of the Interrupt. 
 226:.\Generated_Source\PSoC4/Input_1_Int.c **** *
 227:.\Generated_Source\PSoC4/Input_1_Int.c **** *   Note calling Input_1_Int_Start or Input_1_Int_StartEx will 
 228:.\Generated_Source\PSoC4/Input_1_Int.c **** *   override any effect this API would have had. This API should only be called
 229:.\Generated_Source\PSoC4/Input_1_Int.c **** *   after Input_1_Int_Start or Input_1_Int_StartEx has been called. 
 230:.\Generated_Source\PSoC4/Input_1_Int.c **** *   To set the initial priority for the component, use the Design-Wide Resources
 231:.\Generated_Source\PSoC4/Input_1_Int.c **** *   Interrupt Editor.
 232:.\Generated_Source\PSoC4/Input_1_Int.c **** *
 233:.\Generated_Source\PSoC4/Input_1_Int.c **** *   Note This API has no effect on Non-maskable interrupt NMI).
 234:.\Generated_Source\PSoC4/Input_1_Int.c **** *
 235:.\Generated_Source\PSoC4/Input_1_Int.c **** * Parameters:
 236:.\Generated_Source\PSoC4/Input_1_Int.c **** *   priority: Priority of the interrupt, 0 being the highest priority
 237:.\Generated_Source\PSoC4/Input_1_Int.c **** *             PSoC 3 and PSoC 5LP: Priority is from 0 to 7.
 238:.\Generated_Source\PSoC4/Input_1_Int.c **** *             PSoC 4: Priority is from 0 to 3.
 239:.\Generated_Source\PSoC4/Input_1_Int.c **** *
 240:.\Generated_Source\PSoC4/Input_1_Int.c **** * Return:
 241:.\Generated_Source\PSoC4/Input_1_Int.c **** *   None
 242:.\Generated_Source\PSoC4/Input_1_Int.c **** *
 243:.\Generated_Source\PSoC4/Input_1_Int.c **** *******************************************************************************/
 244:.\Generated_Source\PSoC4/Input_1_Int.c **** void Input_1_Int_SetPriority(uint8 priority)
 245:.\Generated_Source\PSoC4/Input_1_Int.c **** {
  89              		.loc 1 245 0
  90              		.cfi_startproc
  91              	.LVL1:
  92 0000 10B5     		push	{r4, lr}
  93              		.cfi_def_cfa_offset 8
  94              		.cfi_offset 4, -8
  95              		.cfi_offset 14, -4
  96 0002 041C     		mov	r4, r0
  97              	.LVL2:
ARM GAS  C:\Users\JOHNSO~1\AppData\Local\Temp\ccGqWBaL.s 			page 7


 246:.\Generated_Source\PSoC4/Input_1_Int.c **** 	uint8 interruptState;
 247:.\Generated_Source\PSoC4/Input_1_Int.c ****     uint32 priorityOffset = ((Input_1_Int__INTC_NUMBER % 4u) * 8u) + 6u;
 248:.\Generated_Source\PSoC4/Input_1_Int.c ****     
 249:.\Generated_Source\PSoC4/Input_1_Int.c **** 	interruptState = CyEnterCriticalSection();
  98              		.loc 1 249 0
  99 0004 FFF7FEFF 		bl	CyEnterCriticalSection
 100              	.LVL3:
 250:.\Generated_Source\PSoC4/Input_1_Int.c ****     *Input_1_Int_INTC_PRIOR = (*Input_1_Int_INTC_PRIOR & (uint32)(~Input_1_Int__INTC_PRIOR_MASK)) |
 101              		.loc 1 250 0
 102 0008 054B     		ldr	r3, .L9
 103 000a 1968     		ldr	r1, [r3]
 104 000c 054A     		ldr	r2, .L9+4
 105 000e 1140     		and	r1, r2
 251:.\Generated_Source\PSoC4/Input_1_Int.c ****                                     ((uint32)priority << priorityOffset);
 106              		.loc 1 251 0
 107 0010 A205     		lsl	r2, r4, #22
 250:.\Generated_Source\PSoC4/Input_1_Int.c ****     *Input_1_Int_INTC_PRIOR = (*Input_1_Int_INTC_PRIOR & (uint32)(~Input_1_Int__INTC_PRIOR_MASK)) |
 108              		.loc 1 250 0
 109 0012 0C1C     		mov	r4, r1
 110 0014 1443     		orr	r4, r2
 111 0016 1C60     		str	r4, [r3]
 252:.\Generated_Source\PSoC4/Input_1_Int.c **** 	CyExitCriticalSection(interruptState);
 112              		.loc 1 252 0
 113 0018 FFF7FEFF 		bl	CyExitCriticalSection
 114              	.LVL4:
 253:.\Generated_Source\PSoC4/Input_1_Int.c **** }
 115              		.loc 1 253 0
 116              		@ sp needed
 117 001c 10BD     		pop	{r4, pc}
 118              	.L10:
 119 001e C046     		.align	2
 120              	.L9:
 121 0020 00E400E0 		.word	-536812544
 122 0024 FFFF3FFF 		.word	-12582913
 123              		.cfi_endproc
 124              	.LFE8:
 125              		.size	Input_1_Int_SetPriority, .-Input_1_Int_SetPriority
 126              		.section	.text.Input_1_Int_GetPriority,"ax",%progbits
 127              		.align	2
 128              		.global	Input_1_Int_GetPriority
 129              		.code	16
 130              		.thumb_func
 131              		.type	Input_1_Int_GetPriority, %function
 132              	Input_1_Int_GetPriority:
 133              	.LFB9:
 254:.\Generated_Source\PSoC4/Input_1_Int.c **** 
 255:.\Generated_Source\PSoC4/Input_1_Int.c **** 
 256:.\Generated_Source\PSoC4/Input_1_Int.c **** /*******************************************************************************
 257:.\Generated_Source\PSoC4/Input_1_Int.c **** * Function Name: Input_1_Int_GetPriority
 258:.\Generated_Source\PSoC4/Input_1_Int.c **** ********************************************************************************
 259:.\Generated_Source\PSoC4/Input_1_Int.c **** *
 260:.\Generated_Source\PSoC4/Input_1_Int.c **** * Summary:
 261:.\Generated_Source\PSoC4/Input_1_Int.c **** *   Gets the Priority of the Interrupt.
 262:.\Generated_Source\PSoC4/Input_1_Int.c **** *
 263:.\Generated_Source\PSoC4/Input_1_Int.c **** * Parameters:
 264:.\Generated_Source\PSoC4/Input_1_Int.c **** *   None
 265:.\Generated_Source\PSoC4/Input_1_Int.c **** *
ARM GAS  C:\Users\JOHNSO~1\AppData\Local\Temp\ccGqWBaL.s 			page 8


 266:.\Generated_Source\PSoC4/Input_1_Int.c **** * Return:
 267:.\Generated_Source\PSoC4/Input_1_Int.c **** *   Priority of the interrupt, 0 being the highest priority
 268:.\Generated_Source\PSoC4/Input_1_Int.c **** *    PSoC 3 and PSoC 5LP: Priority is from 0 to 7.
 269:.\Generated_Source\PSoC4/Input_1_Int.c **** *    PSoC 4: Priority is from 0 to 3.
 270:.\Generated_Source\PSoC4/Input_1_Int.c **** *
 271:.\Generated_Source\PSoC4/Input_1_Int.c **** *******************************************************************************/
 272:.\Generated_Source\PSoC4/Input_1_Int.c **** uint8 Input_1_Int_GetPriority(void)
 273:.\Generated_Source\PSoC4/Input_1_Int.c **** {
 134              		.loc 1 273 0
 135              		.cfi_startproc
 136              	.LVL5:
 274:.\Generated_Source\PSoC4/Input_1_Int.c ****     uint32 priority;
 275:.\Generated_Source\PSoC4/Input_1_Int.c **** 	uint32 priorityOffset = ((Input_1_Int__INTC_NUMBER % 4u) * 8u) + 6u;
 276:.\Generated_Source\PSoC4/Input_1_Int.c **** 
 277:.\Generated_Source\PSoC4/Input_1_Int.c ****     priority = (*Input_1_Int_INTC_PRIOR & Input_1_Int__INTC_PRIOR_MASK) >> priorityOffset;
 137              		.loc 1 277 0
 138 0000 024B     		ldr	r3, .L12
 139 0002 1868     		ldr	r0, [r3]
 140 0004 0002     		lsl	r0, r0, #8
 141              	.LVL6:
 278:.\Generated_Source\PSoC4/Input_1_Int.c **** 
 279:.\Generated_Source\PSoC4/Input_1_Int.c ****     return (uint8)priority;
 142              		.loc 1 279 0
 143 0006 800F     		lsr	r0, r0, #30
 144              	.LVL7:
 280:.\Generated_Source\PSoC4/Input_1_Int.c **** }
 145              		.loc 1 280 0
 146              		@ sp needed
 147 0008 7047     		bx	lr
 148              	.L13:
 149 000a C046     		.align	2
 150              	.L12:
 151 000c 00E400E0 		.word	-536812544
 152              		.cfi_endproc
 153              	.LFE9:
 154              		.size	Input_1_Int_GetPriority, .-Input_1_Int_GetPriority
 155              		.section	.text.Input_1_Int_Enable,"ax",%progbits
 156              		.align	2
 157              		.global	Input_1_Int_Enable
 158              		.code	16
 159              		.thumb_func
 160              		.type	Input_1_Int_Enable, %function
 161              	Input_1_Int_Enable:
 162              	.LFB10:
 281:.\Generated_Source\PSoC4/Input_1_Int.c **** 
 282:.\Generated_Source\PSoC4/Input_1_Int.c **** 
 283:.\Generated_Source\PSoC4/Input_1_Int.c **** /*******************************************************************************
 284:.\Generated_Source\PSoC4/Input_1_Int.c **** * Function Name: Input_1_Int_Enable
 285:.\Generated_Source\PSoC4/Input_1_Int.c **** ********************************************************************************
 286:.\Generated_Source\PSoC4/Input_1_Int.c **** *
 287:.\Generated_Source\PSoC4/Input_1_Int.c **** * Summary:
 288:.\Generated_Source\PSoC4/Input_1_Int.c **** *   Enables the interrupt to the interrupt controller. Do not call this function
 289:.\Generated_Source\PSoC4/Input_1_Int.c **** *   unless ISR_Start() has been called or the functionality of the ISR_Start() 
 290:.\Generated_Source\PSoC4/Input_1_Int.c **** *   function, which sets the vector and the priority, has been called.
 291:.\Generated_Source\PSoC4/Input_1_Int.c **** *
 292:.\Generated_Source\PSoC4/Input_1_Int.c **** * Parameters:
 293:.\Generated_Source\PSoC4/Input_1_Int.c **** *   None
ARM GAS  C:\Users\JOHNSO~1\AppData\Local\Temp\ccGqWBaL.s 			page 9


 294:.\Generated_Source\PSoC4/Input_1_Int.c **** *
 295:.\Generated_Source\PSoC4/Input_1_Int.c **** * Return:
 296:.\Generated_Source\PSoC4/Input_1_Int.c **** *   None
 297:.\Generated_Source\PSoC4/Input_1_Int.c **** *
 298:.\Generated_Source\PSoC4/Input_1_Int.c **** *******************************************************************************/
 299:.\Generated_Source\PSoC4/Input_1_Int.c **** void Input_1_Int_Enable(void)
 300:.\Generated_Source\PSoC4/Input_1_Int.c **** {
 163              		.loc 1 300 0
 164              		.cfi_startproc
 301:.\Generated_Source\PSoC4/Input_1_Int.c ****     /* Enable the general interrupt. */
 302:.\Generated_Source\PSoC4/Input_1_Int.c ****     *Input_1_Int_INTC_SET_EN = Input_1_Int__INTC_MASK;
 165              		.loc 1 302 0
 166 0000 0422     		mov	r2, #4
 167 0002 014B     		ldr	r3, .L15
 168 0004 1A60     		str	r2, [r3]
 303:.\Generated_Source\PSoC4/Input_1_Int.c **** }
 169              		.loc 1 303 0
 170              		@ sp needed
 171 0006 7047     		bx	lr
 172              	.L16:
 173              		.align	2
 174              	.L15:
 175 0008 00E100E0 		.word	-536813312
 176              		.cfi_endproc
 177              	.LFE10:
 178              		.size	Input_1_Int_Enable, .-Input_1_Int_Enable
 179              		.section	.text.Input_1_Int_GetState,"ax",%progbits
 180              		.align	2
 181              		.global	Input_1_Int_GetState
 182              		.code	16
 183              		.thumb_func
 184              		.type	Input_1_Int_GetState, %function
 185              	Input_1_Int_GetState:
 186              	.LFB11:
 304:.\Generated_Source\PSoC4/Input_1_Int.c **** 
 305:.\Generated_Source\PSoC4/Input_1_Int.c **** 
 306:.\Generated_Source\PSoC4/Input_1_Int.c **** /*******************************************************************************
 307:.\Generated_Source\PSoC4/Input_1_Int.c **** * Function Name: Input_1_Int_GetState
 308:.\Generated_Source\PSoC4/Input_1_Int.c **** ********************************************************************************
 309:.\Generated_Source\PSoC4/Input_1_Int.c **** *
 310:.\Generated_Source\PSoC4/Input_1_Int.c **** * Summary:
 311:.\Generated_Source\PSoC4/Input_1_Int.c **** *   Gets the state (enabled, disabled) of the Interrupt.
 312:.\Generated_Source\PSoC4/Input_1_Int.c **** *
 313:.\Generated_Source\PSoC4/Input_1_Int.c **** * Parameters:
 314:.\Generated_Source\PSoC4/Input_1_Int.c **** *   None
 315:.\Generated_Source\PSoC4/Input_1_Int.c **** *
 316:.\Generated_Source\PSoC4/Input_1_Int.c **** * Return:
 317:.\Generated_Source\PSoC4/Input_1_Int.c **** *   1 if enabled, 0 if disabled.
 318:.\Generated_Source\PSoC4/Input_1_Int.c **** *
 319:.\Generated_Source\PSoC4/Input_1_Int.c **** *******************************************************************************/
 320:.\Generated_Source\PSoC4/Input_1_Int.c **** uint8 Input_1_Int_GetState(void)
 321:.\Generated_Source\PSoC4/Input_1_Int.c **** {
 187              		.loc 1 321 0
 188              		.cfi_startproc
 322:.\Generated_Source\PSoC4/Input_1_Int.c ****     /* Get the state of the general interrupt. */
 323:.\Generated_Source\PSoC4/Input_1_Int.c ****     return ((*Input_1_Int_INTC_SET_EN & (uint32)Input_1_Int__INTC_MASK) != 0u) ? 1u:0u;
 189              		.loc 1 323 0
ARM GAS  C:\Users\JOHNSO~1\AppData\Local\Temp\ccGqWBaL.s 			page 10


 190 0000 034B     		ldr	r3, .L20
 191 0002 1B68     		ldr	r3, [r3]
 192 0004 5A07     		lsl	r2, r3, #29
 193 0006 01D5     		bpl	.L19
 194 0008 0120     		mov	r0, #1
 195 000a 00E0     		b	.L18
 196              	.L19:
 197 000c 0020     		mov	r0, #0
 198              	.L18:
 324:.\Generated_Source\PSoC4/Input_1_Int.c **** }
 199              		.loc 1 324 0 discriminator 3
 200              		@ sp needed
 201 000e 7047     		bx	lr
 202              	.L21:
 203              		.align	2
 204              	.L20:
 205 0010 00E100E0 		.word	-536813312
 206              		.cfi_endproc
 207              	.LFE11:
 208              		.size	Input_1_Int_GetState, .-Input_1_Int_GetState
 209              		.section	.text.Input_1_Int_Disable,"ax",%progbits
 210              		.align	2
 211              		.global	Input_1_Int_Disable
 212              		.code	16
 213              		.thumb_func
 214              		.type	Input_1_Int_Disable, %function
 215              	Input_1_Int_Disable:
 216              	.LFB12:
 325:.\Generated_Source\PSoC4/Input_1_Int.c **** 
 326:.\Generated_Source\PSoC4/Input_1_Int.c **** 
 327:.\Generated_Source\PSoC4/Input_1_Int.c **** /*******************************************************************************
 328:.\Generated_Source\PSoC4/Input_1_Int.c **** * Function Name: Input_1_Int_Disable
 329:.\Generated_Source\PSoC4/Input_1_Int.c **** ********************************************************************************
 330:.\Generated_Source\PSoC4/Input_1_Int.c **** *
 331:.\Generated_Source\PSoC4/Input_1_Int.c **** * Summary:
 332:.\Generated_Source\PSoC4/Input_1_Int.c **** *   Disables the Interrupt in the interrupt controller.
 333:.\Generated_Source\PSoC4/Input_1_Int.c **** *
 334:.\Generated_Source\PSoC4/Input_1_Int.c **** * Parameters:
 335:.\Generated_Source\PSoC4/Input_1_Int.c **** *   None
 336:.\Generated_Source\PSoC4/Input_1_Int.c **** *
 337:.\Generated_Source\PSoC4/Input_1_Int.c **** * Return:
 338:.\Generated_Source\PSoC4/Input_1_Int.c **** *   None
 339:.\Generated_Source\PSoC4/Input_1_Int.c **** *
 340:.\Generated_Source\PSoC4/Input_1_Int.c **** *******************************************************************************/
 341:.\Generated_Source\PSoC4/Input_1_Int.c **** void Input_1_Int_Disable(void)
 342:.\Generated_Source\PSoC4/Input_1_Int.c **** {
 217              		.loc 1 342 0
 218              		.cfi_startproc
 343:.\Generated_Source\PSoC4/Input_1_Int.c ****     /* Disable the general interrupt. */
 344:.\Generated_Source\PSoC4/Input_1_Int.c ****     *Input_1_Int_INTC_CLR_EN = Input_1_Int__INTC_MASK;
 219              		.loc 1 344 0
 220 0000 0422     		mov	r2, #4
 221 0002 014B     		ldr	r3, .L23
 222 0004 1A60     		str	r2, [r3]
 345:.\Generated_Source\PSoC4/Input_1_Int.c **** }
 223              		.loc 1 345 0
 224              		@ sp needed
ARM GAS  C:\Users\JOHNSO~1\AppData\Local\Temp\ccGqWBaL.s 			page 11


 225 0006 7047     		bx	lr
 226              	.L24:
 227              		.align	2
 228              	.L23:
 229 0008 80E100E0 		.word	-536813184
 230              		.cfi_endproc
 231              	.LFE12:
 232              		.size	Input_1_Int_Disable, .-Input_1_Int_Disable
 233              		.section	.text.Input_1_Int_Start,"ax",%progbits
 234              		.align	2
 235              		.global	Input_1_Int_Start
 236              		.code	16
 237              		.thumb_func
 238              		.type	Input_1_Int_Start, %function
 239              	Input_1_Int_Start:
 240              	.LFB2:
  56:.\Generated_Source\PSoC4/Input_1_Int.c **** {
 241              		.loc 1 56 0
 242              		.cfi_startproc
 243 0000 08B5     		push	{r3, lr}
 244              		.cfi_def_cfa_offset 8
 245              		.cfi_offset 3, -8
 246              		.cfi_offset 14, -4
  58:.\Generated_Source\PSoC4/Input_1_Int.c ****     Input_1_Int_Disable();
 247              		.loc 1 58 0
 248 0002 FFF7FEFF 		bl	Input_1_Int_Disable
 249              	.LVL8:
  61:.\Generated_Source\PSoC4/Input_1_Int.c ****     Input_1_Int_SetVector(&Input_1_Int_Interrupt);
 250              		.loc 1 61 0
 251 0006 0448     		ldr	r0, .L26
 252 0008 FFF7FEFF 		bl	Input_1_Int_SetVector
 253              	.LVL9:
  64:.\Generated_Source\PSoC4/Input_1_Int.c ****     Input_1_Int_SetPriority((uint8)Input_1_Int_INTC_PRIOR_NUMBER);
 254              		.loc 1 64 0
 255 000c 0320     		mov	r0, #3
 256 000e FFF7FEFF 		bl	Input_1_Int_SetPriority
 257              	.LVL10:
  67:.\Generated_Source\PSoC4/Input_1_Int.c ****     Input_1_Int_Enable();
 258              		.loc 1 67 0
 259 0012 FFF7FEFF 		bl	Input_1_Int_Enable
 260              	.LVL11:
  68:.\Generated_Source\PSoC4/Input_1_Int.c **** }
 261              		.loc 1 68 0
 262              		@ sp needed
 263 0016 08BD     		pop	{r3, pc}
 264              	.L27:
 265              		.align	2
 266              	.L26:
 267 0018 00000000 		.word	Input_1_Int_Interrupt
 268              		.cfi_endproc
 269              	.LFE2:
 270              		.size	Input_1_Int_Start, .-Input_1_Int_Start
 271              		.section	.text.Input_1_Int_StartEx,"ax",%progbits
 272              		.align	2
 273              		.global	Input_1_Int_StartEx
 274              		.code	16
 275              		.thumb_func
ARM GAS  C:\Users\JOHNSO~1\AppData\Local\Temp\ccGqWBaL.s 			page 12


 276              		.type	Input_1_Int_StartEx, %function
 277              	Input_1_Int_StartEx:
 278              	.LFB3:
  99:.\Generated_Source\PSoC4/Input_1_Int.c **** {
 279              		.loc 1 99 0
 280              		.cfi_startproc
 281              	.LVL12:
 282 0000 10B5     		push	{r4, lr}
 283              		.cfi_def_cfa_offset 8
 284              		.cfi_offset 4, -8
 285              		.cfi_offset 14, -4
 286 0002 041C     		mov	r4, r0
 101:.\Generated_Source\PSoC4/Input_1_Int.c ****     Input_1_Int_Disable();
 287              		.loc 1 101 0
 288 0004 FFF7FEFF 		bl	Input_1_Int_Disable
 289              	.LVL13:
 104:.\Generated_Source\PSoC4/Input_1_Int.c ****     Input_1_Int_SetVector(address);
 290              		.loc 1 104 0
 291 0008 201C     		mov	r0, r4
 292 000a FFF7FEFF 		bl	Input_1_Int_SetVector
 293              	.LVL14:
 107:.\Generated_Source\PSoC4/Input_1_Int.c ****     Input_1_Int_SetPriority((uint8)Input_1_Int_INTC_PRIOR_NUMBER);
 294              		.loc 1 107 0
 295 000e 0320     		mov	r0, #3
 296 0010 FFF7FEFF 		bl	Input_1_Int_SetPriority
 297              	.LVL15:
 110:.\Generated_Source\PSoC4/Input_1_Int.c ****     Input_1_Int_Enable();
 298              		.loc 1 110 0
 299 0014 FFF7FEFF 		bl	Input_1_Int_Enable
 300              	.LVL16:
 111:.\Generated_Source\PSoC4/Input_1_Int.c **** }
 301              		.loc 1 111 0
 302              		@ sp needed
 303              	.LVL17:
 304 0018 10BD     		pop	{r4, pc}
 305              		.cfi_endproc
 306              	.LFE3:
 307              		.size	Input_1_Int_StartEx, .-Input_1_Int_StartEx
 308 001a C046     		.section	.text.Input_1_Int_Stop,"ax",%progbits
 309              		.align	2
 310              		.global	Input_1_Int_Stop
 311              		.code	16
 312              		.thumb_func
 313              		.type	Input_1_Int_Stop, %function
 314              	Input_1_Int_Stop:
 315              	.LFB4:
 129:.\Generated_Source\PSoC4/Input_1_Int.c **** {
 316              		.loc 1 129 0
 317              		.cfi_startproc
 318 0000 08B5     		push	{r3, lr}
 319              		.cfi_def_cfa_offset 8
 320              		.cfi_offset 3, -8
 321              		.cfi_offset 14, -4
 131:.\Generated_Source\PSoC4/Input_1_Int.c ****     Input_1_Int_Disable();
 322              		.loc 1 131 0
 323 0002 FFF7FEFF 		bl	Input_1_Int_Disable
 324              	.LVL18:
ARM GAS  C:\Users\JOHNSO~1\AppData\Local\Temp\ccGqWBaL.s 			page 13


 134:.\Generated_Source\PSoC4/Input_1_Int.c ****     Input_1_Int_SetVector(&IntDefaultHandler);
 325              		.loc 1 134 0
 326 0006 0248     		ldr	r0, .L30
 327 0008 FFF7FEFF 		bl	Input_1_Int_SetVector
 328              	.LVL19:
 135:.\Generated_Source\PSoC4/Input_1_Int.c **** }
 329              		.loc 1 135 0
 330              		@ sp needed
 331 000c 08BD     		pop	{r3, pc}
 332              	.L31:
 333 000e C046     		.align	2
 334              	.L30:
 335 0010 00000000 		.word	IntDefaultHandler
 336              		.cfi_endproc
 337              	.LFE4:
 338              		.size	Input_1_Int_Stop, .-Input_1_Int_Stop
 339              		.section	.text.Input_1_Int_SetPending,"ax",%progbits
 340              		.align	2
 341              		.global	Input_1_Int_SetPending
 342              		.code	16
 343              		.thumb_func
 344              		.type	Input_1_Int_SetPending, %function
 345              	Input_1_Int_SetPending:
 346              	.LFB13:
 346:.\Generated_Source\PSoC4/Input_1_Int.c **** 
 347:.\Generated_Source\PSoC4/Input_1_Int.c **** 
 348:.\Generated_Source\PSoC4/Input_1_Int.c **** /*******************************************************************************
 349:.\Generated_Source\PSoC4/Input_1_Int.c **** * Function Name: Input_1_Int_SetPending
 350:.\Generated_Source\PSoC4/Input_1_Int.c **** ********************************************************************************
 351:.\Generated_Source\PSoC4/Input_1_Int.c **** *
 352:.\Generated_Source\PSoC4/Input_1_Int.c **** * Summary:
 353:.\Generated_Source\PSoC4/Input_1_Int.c **** *   Causes the Interrupt to enter the pending state, a software method of
 354:.\Generated_Source\PSoC4/Input_1_Int.c **** *   generating the interrupt.
 355:.\Generated_Source\PSoC4/Input_1_Int.c **** *
 356:.\Generated_Source\PSoC4/Input_1_Int.c **** * Parameters:
 357:.\Generated_Source\PSoC4/Input_1_Int.c **** *   None
 358:.\Generated_Source\PSoC4/Input_1_Int.c **** *
 359:.\Generated_Source\PSoC4/Input_1_Int.c **** * Return:
 360:.\Generated_Source\PSoC4/Input_1_Int.c **** *   None
 361:.\Generated_Source\PSoC4/Input_1_Int.c **** *
 362:.\Generated_Source\PSoC4/Input_1_Int.c **** * Side Effects:
 363:.\Generated_Source\PSoC4/Input_1_Int.c **** *   If interrupts are enabled and the interrupt is set up properly, the ISR is
 364:.\Generated_Source\PSoC4/Input_1_Int.c **** *   entered (depending on the priority of this interrupt and other pending 
 365:.\Generated_Source\PSoC4/Input_1_Int.c **** *   interrupts).
 366:.\Generated_Source\PSoC4/Input_1_Int.c **** *
 367:.\Generated_Source\PSoC4/Input_1_Int.c **** *******************************************************************************/
 368:.\Generated_Source\PSoC4/Input_1_Int.c **** void Input_1_Int_SetPending(void)
 369:.\Generated_Source\PSoC4/Input_1_Int.c **** {
 347              		.loc 1 369 0
 348              		.cfi_startproc
 370:.\Generated_Source\PSoC4/Input_1_Int.c ****     *Input_1_Int_INTC_SET_PD = Input_1_Int__INTC_MASK;
 349              		.loc 1 370 0
 350 0000 0422     		mov	r2, #4
 351 0002 014B     		ldr	r3, .L33
 352 0004 1A60     		str	r2, [r3]
 371:.\Generated_Source\PSoC4/Input_1_Int.c **** }
 353              		.loc 1 371 0
ARM GAS  C:\Users\JOHNSO~1\AppData\Local\Temp\ccGqWBaL.s 			page 14


 354              		@ sp needed
 355 0006 7047     		bx	lr
 356              	.L34:
 357              		.align	2
 358              	.L33:
 359 0008 00E200E0 		.word	-536813056
 360              		.cfi_endproc
 361              	.LFE13:
 362              		.size	Input_1_Int_SetPending, .-Input_1_Int_SetPending
 363              		.section	.text.Input_1_Int_ClearPending,"ax",%progbits
 364              		.align	2
 365              		.global	Input_1_Int_ClearPending
 366              		.code	16
 367              		.thumb_func
 368              		.type	Input_1_Int_ClearPending, %function
 369              	Input_1_Int_ClearPending:
 370              	.LFB14:
 372:.\Generated_Source\PSoC4/Input_1_Int.c **** 
 373:.\Generated_Source\PSoC4/Input_1_Int.c **** 
 374:.\Generated_Source\PSoC4/Input_1_Int.c **** /*******************************************************************************
 375:.\Generated_Source\PSoC4/Input_1_Int.c **** * Function Name: Input_1_Int_ClearPending
 376:.\Generated_Source\PSoC4/Input_1_Int.c **** ********************************************************************************
 377:.\Generated_Source\PSoC4/Input_1_Int.c **** *
 378:.\Generated_Source\PSoC4/Input_1_Int.c **** * Summary:
 379:.\Generated_Source\PSoC4/Input_1_Int.c **** *   Clears a pending interrupt in the interrupt controller.
 380:.\Generated_Source\PSoC4/Input_1_Int.c **** *
 381:.\Generated_Source\PSoC4/Input_1_Int.c **** *   Note Some interrupt sources are clear-on-read and require the block 
 382:.\Generated_Source\PSoC4/Input_1_Int.c **** *   interrupt/status register to be read/cleared with the appropriate block API 
 383:.\Generated_Source\PSoC4/Input_1_Int.c **** *   (GPIO, UART, and so on). Otherwise the ISR will continue to remain in 
 384:.\Generated_Source\PSoC4/Input_1_Int.c **** *   pending state even though the interrupt itself is cleared using this API.
 385:.\Generated_Source\PSoC4/Input_1_Int.c **** *
 386:.\Generated_Source\PSoC4/Input_1_Int.c **** * Parameters:
 387:.\Generated_Source\PSoC4/Input_1_Int.c **** *   None
 388:.\Generated_Source\PSoC4/Input_1_Int.c **** *
 389:.\Generated_Source\PSoC4/Input_1_Int.c **** * Return:
 390:.\Generated_Source\PSoC4/Input_1_Int.c **** *   None
 391:.\Generated_Source\PSoC4/Input_1_Int.c **** *
 392:.\Generated_Source\PSoC4/Input_1_Int.c **** *******************************************************************************/
 393:.\Generated_Source\PSoC4/Input_1_Int.c **** void Input_1_Int_ClearPending(void)
 394:.\Generated_Source\PSoC4/Input_1_Int.c **** {
 371              		.loc 1 394 0
 372              		.cfi_startproc
 395:.\Generated_Source\PSoC4/Input_1_Int.c ****     *Input_1_Int_INTC_CLR_PD = Input_1_Int__INTC_MASK;
 373              		.loc 1 395 0
 374 0000 0422     		mov	r2, #4
 375 0002 014B     		ldr	r3, .L36
 376 0004 1A60     		str	r2, [r3]
 396:.\Generated_Source\PSoC4/Input_1_Int.c **** }
 377              		.loc 1 396 0
 378              		@ sp needed
 379 0006 7047     		bx	lr
 380              	.L37:
 381              		.align	2
 382              	.L36:
 383 0008 80E200E0 		.word	-536812928
 384              		.cfi_endproc
 385              	.LFE14:
ARM GAS  C:\Users\JOHNSO~1\AppData\Local\Temp\ccGqWBaL.s 			page 15


 386              		.size	Input_1_Int_ClearPending, .-Input_1_Int_ClearPending
 387              		.text
 388              	.Letext0:
 389              		.file 2 "Generated_Source\\PSoC4/cytypes.h"
 390              		.file 3 "Generated_Source\\PSoC4/CyLib.h"
 391              		.section	.debug_info,"",%progbits
 392              	.Ldebug_info0:
 393 0000 FA020000 		.4byte	0x2fa
 394 0004 0400     		.2byte	0x4
 395 0006 00000000 		.4byte	.Ldebug_abbrev0
 396 000a 04       		.byte	0x4
 397 000b 01       		.uleb128 0x1
 398 000c C6010000 		.4byte	.LASF33
 399 0010 01       		.byte	0x1
 400 0011 17000000 		.4byte	.LASF34
 401 0015 42020000 		.4byte	.LASF35
 402 0019 00000000 		.4byte	.Ldebug_ranges0+0
 403 001d 00000000 		.4byte	0
 404 0021 00000000 		.4byte	.Ldebug_line0
 405 0025 02       		.uleb128 0x2
 406 0026 01       		.byte	0x1
 407 0027 06       		.byte	0x6
 408 0028 FE020000 		.4byte	.LASF0
 409 002c 02       		.uleb128 0x2
 410 002d 01       		.byte	0x1
 411 002e 08       		.byte	0x8
 412 002f B7000000 		.4byte	.LASF1
 413 0033 02       		.uleb128 0x2
 414 0034 02       		.byte	0x2
 415 0035 05       		.byte	0x5
 416 0036 CF020000 		.4byte	.LASF2
 417 003a 02       		.uleb128 0x2
 418 003b 02       		.byte	0x2
 419 003c 07       		.byte	0x7
 420 003d 47000000 		.4byte	.LASF3
 421 0041 02       		.uleb128 0x2
 422 0042 04       		.byte	0x4
 423 0043 05       		.byte	0x5
 424 0044 3E000000 		.4byte	.LASF4
 425 0048 02       		.uleb128 0x2
 426 0049 04       		.byte	0x4
 427 004a 07       		.byte	0x7
 428 004b FE000000 		.4byte	.LASF5
 429 004f 02       		.uleb128 0x2
 430 0050 08       		.byte	0x8
 431 0051 05       		.byte	0x5
 432 0052 AF020000 		.4byte	.LASF6
 433 0056 02       		.uleb128 0x2
 434 0057 08       		.byte	0x8
 435 0058 07       		.byte	0x7
 436 0059 A0000000 		.4byte	.LASF7
 437 005d 03       		.uleb128 0x3
 438 005e 04       		.byte	0x4
 439 005f 05       		.byte	0x5
 440 0060 696E7400 		.ascii	"int\000"
 441 0064 02       		.uleb128 0x2
 442 0065 04       		.byte	0x4
ARM GAS  C:\Users\JOHNSO~1\AppData\Local\Temp\ccGqWBaL.s 			page 16


 443 0066 07       		.byte	0x7
 444 0067 6E010000 		.4byte	.LASF8
 445 006b 04       		.uleb128 0x4
 446 006c 10010000 		.4byte	.LASF9
 447 0070 02       		.byte	0x2
 448 0071 C1       		.byte	0xc1
 449 0072 2C000000 		.4byte	0x2c
 450 0076 04       		.uleb128 0x4
 451 0077 50010000 		.4byte	.LASF10
 452 007b 02       		.byte	0x2
 453 007c C3       		.byte	0xc3
 454 007d 48000000 		.4byte	0x48
 455 0081 02       		.uleb128 0x2
 456 0082 04       		.byte	0x4
 457 0083 04       		.byte	0x4
 458 0084 9A000000 		.4byte	.LASF11
 459 0088 02       		.uleb128 0x2
 460 0089 08       		.byte	0x8
 461 008a 04       		.byte	0x4
 462 008b 32010000 		.4byte	.LASF12
 463 008f 02       		.uleb128 0x2
 464 0090 01       		.byte	0x1
 465 0091 08       		.byte	0x8
 466 0092 BD020000 		.4byte	.LASF13
 467 0096 05       		.uleb128 0x5
 468 0097 00000000 		.4byte	.LASF14
 469 009b 02       		.byte	0x2
 470 009c 6D01     		.2byte	0x16d
 471 009e A2000000 		.4byte	0xa2
 472 00a2 06       		.uleb128 0x6
 473 00a3 76000000 		.4byte	0x76
 474 00a7 05       		.uleb128 0x5
 475 00a8 99020000 		.4byte	.LASF15
 476 00ac 02       		.byte	0x2
 477 00ad 7D01     		.2byte	0x17d
 478 00af B3000000 		.4byte	0xb3
 479 00b3 07       		.uleb128 0x7
 480 00b4 04       		.byte	0x4
 481 00b5 B9000000 		.4byte	0xb9
 482 00b9 08       		.uleb128 0x8
 483 00ba 02       		.uleb128 0x2
 484 00bb 04       		.byte	0x4
 485 00bc 07       		.byte	0x7
 486 00bd A6020000 		.4byte	.LASF16
 487 00c1 09       		.uleb128 0x9
 488 00c2 C5000000 		.4byte	.LASF23
 489 00c6 01       		.byte	0x1
 490 00c7 9E       		.byte	0x9e
 491 00c8 00000000 		.4byte	.LFB5
 492 00cc 02000000 		.4byte	.LFE5-.LFB5
 493 00d0 01       		.uleb128 0x1
 494 00d1 9C       		.byte	0x9c
 495 00d2 0A       		.uleb128 0xa
 496 00d3 E8020000 		.4byte	.LASF17
 497 00d7 01       		.byte	0x1
 498 00d8 C2       		.byte	0xc2
 499 00d9 00000000 		.4byte	.LFB6
ARM GAS  C:\Users\JOHNSO~1\AppData\Local\Temp\ccGqWBaL.s 			page 17


 500 00dd 0C000000 		.4byte	.LFE6-.LFB6
 501 00e1 01       		.uleb128 0x1
 502 00e2 9C       		.byte	0x9c
 503 00e3 F5000000 		.4byte	0xf5
 504 00e7 0B       		.uleb128 0xb
 505 00e8 7B010000 		.4byte	.LASF19
 506 00ec 01       		.byte	0x1
 507 00ed C2       		.byte	0xc2
 508 00ee A7000000 		.4byte	0xa7
 509 00f2 01       		.uleb128 0x1
 510 00f3 50       		.byte	0x50
 511 00f4 00       		.byte	0
 512 00f5 0C       		.uleb128 0xc
 513 00f6 6C000000 		.4byte	.LASF25
 514 00fa 01       		.byte	0x1
 515 00fb D6       		.byte	0xd6
 516 00fc A7000000 		.4byte	0xa7
 517 0100 00000000 		.4byte	.LFB7
 518 0104 0C000000 		.4byte	.LFE7-.LFB7
 519 0108 01       		.uleb128 0x1
 520 0109 9C       		.byte	0x9c
 521 010a 0A       		.uleb128 0xa
 522 010b 82000000 		.4byte	.LASF18
 523 010f 01       		.byte	0x1
 524 0110 F4       		.byte	0xf4
 525 0111 00000000 		.4byte	.LFB8
 526 0115 28000000 		.4byte	.LFE8-.LFB8
 527 0119 01       		.uleb128 0x1
 528 011a 9C       		.byte	0x9c
 529 011b 5C010000 		.4byte	0x15c
 530 011f 0D       		.uleb128 0xd
 531 0120 16010000 		.4byte	.LASF20
 532 0124 01       		.byte	0x1
 533 0125 F4       		.byte	0xf4
 534 0126 6B000000 		.4byte	0x6b
 535 012a 00000000 		.4byte	.LLST0
 536 012e 0E       		.uleb128 0xe
 537 012f EF000000 		.4byte	.LASF21
 538 0133 01       		.byte	0x1
 539 0134 F6       		.byte	0xf6
 540 0135 6B000000 		.4byte	0x6b
 541 0139 21000000 		.4byte	.LLST1
 542 013d 0F       		.uleb128 0xf
 543 013e D9020000 		.4byte	.LASF22
 544 0142 01       		.byte	0x1
 545 0143 F7       		.byte	0xf7
 546 0144 76000000 		.4byte	0x76
 547 0148 16       		.byte	0x16
 548 0149 10       		.uleb128 0x10
 549 014a 08000000 		.4byte	.LVL3
 550 014e E5020000 		.4byte	0x2e5
 551 0152 10       		.uleb128 0x10
 552 0153 1C000000 		.4byte	.LVL4
 553 0157 F0020000 		.4byte	0x2f0
 554 015b 00       		.byte	0
 555 015c 11       		.uleb128 0x11
 556 015d 1F030000 		.4byte	.LASF36
ARM GAS  C:\Users\JOHNSO~1\AppData\Local\Temp\ccGqWBaL.s 			page 18


 557 0161 01       		.byte	0x1
 558 0162 1001     		.2byte	0x110
 559 0164 6B000000 		.4byte	0x6b
 560 0168 00000000 		.4byte	.LFB9
 561 016c 10000000 		.4byte	.LFE9-.LFB9
 562 0170 01       		.uleb128 0x1
 563 0171 9C       		.byte	0x9c
 564 0172 94010000 		.4byte	0x194
 565 0176 12       		.uleb128 0x12
 566 0177 16010000 		.4byte	.LASF20
 567 017b 01       		.byte	0x1
 568 017c 1201     		.2byte	0x112
 569 017e 76000000 		.4byte	0x76
 570 0182 34000000 		.4byte	.LLST2
 571 0186 13       		.uleb128 0x13
 572 0187 D9020000 		.4byte	.LASF22
 573 018b 01       		.byte	0x1
 574 018c 1301     		.2byte	0x113
 575 018e 76000000 		.4byte	0x76
 576 0192 16       		.byte	0x16
 577 0193 00       		.byte	0
 578 0194 14       		.uleb128 0x14
 579 0195 1F010000 		.4byte	.LASF24
 580 0199 01       		.byte	0x1
 581 019a 2B01     		.2byte	0x12b
 582 019c 00000000 		.4byte	.LFB10
 583 01a0 0C000000 		.4byte	.LFE10-.LFB10
 584 01a4 01       		.uleb128 0x1
 585 01a5 9C       		.byte	0x9c
 586 01a6 15       		.uleb128 0x15
 587 01a7 0A030000 		.4byte	.LASF26
 588 01ab 01       		.byte	0x1
 589 01ac 4001     		.2byte	0x140
 590 01ae 6B000000 		.4byte	0x6b
 591 01b2 00000000 		.4byte	.LFB11
 592 01b6 14000000 		.4byte	.LFE11-.LFB11
 593 01ba 01       		.uleb128 0x1
 594 01bb 9C       		.byte	0x9c
 595 01bc 14       		.uleb128 0x14
 596 01bd B2010000 		.4byte	.LASF27
 597 01c1 01       		.byte	0x1
 598 01c2 5501     		.2byte	0x155
 599 01c4 00000000 		.4byte	.LFB12
 600 01c8 0C000000 		.4byte	.LFE12-.LFB12
 601 01cc 01       		.uleb128 0x1
 602 01cd 9C       		.byte	0x9c
 603 01ce 0A       		.uleb128 0xa
 604 01cf 5A000000 		.4byte	.LASF28
 605 01d3 01       		.byte	0x1
 606 01d4 37       		.byte	0x37
 607 01d5 00000000 		.4byte	.LFB2
 608 01d9 1C000000 		.4byte	.LFE2-.LFB2
 609 01dd 01       		.uleb128 0x1
 610 01de 9C       		.byte	0x9c
 611 01df 20020000 		.4byte	0x220
 612 01e3 10       		.uleb128 0x10
 613 01e4 06000000 		.4byte	.LVL8
ARM GAS  C:\Users\JOHNSO~1\AppData\Local\Temp\ccGqWBaL.s 			page 19


 614 01e8 BC010000 		.4byte	0x1bc
 615 01ec 16       		.uleb128 0x16
 616 01ed 0C000000 		.4byte	.LVL9
 617 01f1 D2000000 		.4byte	0xd2
 618 01f5 03020000 		.4byte	0x203
 619 01f9 17       		.uleb128 0x17
 620 01fa 01       		.uleb128 0x1
 621 01fb 50       		.byte	0x50
 622 01fc 05       		.uleb128 0x5
 623 01fd 03       		.byte	0x3
 624 01fe 00000000 		.4byte	Input_1_Int_Interrupt
 625 0202 00       		.byte	0
 626 0203 16       		.uleb128 0x16
 627 0204 12000000 		.4byte	.LVL10
 628 0208 0A010000 		.4byte	0x10a
 629 020c 16020000 		.4byte	0x216
 630 0210 17       		.uleb128 0x17
 631 0211 01       		.uleb128 0x1
 632 0212 50       		.byte	0x50
 633 0213 01       		.uleb128 0x1
 634 0214 33       		.byte	0x33
 635 0215 00       		.byte	0
 636 0216 10       		.uleb128 0x10
 637 0217 16000000 		.4byte	.LVL11
 638 021b 94010000 		.4byte	0x194
 639 021f 00       		.byte	0
 640 0220 0A       		.uleb128 0xa
 641 0221 DB000000 		.4byte	.LASF29
 642 0225 01       		.byte	0x1
 643 0226 62       		.byte	0x62
 644 0227 00000000 		.4byte	.LFB3
 645 022b 1A000000 		.4byte	.LFE3-.LFB3
 646 022f 01       		.uleb128 0x1
 647 0230 9C       		.byte	0x9c
 648 0231 7E020000 		.4byte	0x27e
 649 0235 0D       		.uleb128 0xd
 650 0236 7B010000 		.4byte	.LASF19
 651 023a 01       		.byte	0x1
 652 023b 62       		.byte	0x62
 653 023c A7000000 		.4byte	0xa7
 654 0240 56000000 		.4byte	.LLST3
 655 0244 10       		.uleb128 0x10
 656 0245 08000000 		.4byte	.LVL13
 657 0249 BC010000 		.4byte	0x1bc
 658 024d 16       		.uleb128 0x16
 659 024e 0E000000 		.4byte	.LVL14
 660 0252 D2000000 		.4byte	0xd2
 661 0256 61020000 		.4byte	0x261
 662 025a 17       		.uleb128 0x17
 663 025b 01       		.uleb128 0x1
 664 025c 50       		.byte	0x50
 665 025d 02       		.uleb128 0x2
 666 025e 74       		.byte	0x74
 667 025f 00       		.sleb128 0
 668 0260 00       		.byte	0
 669 0261 16       		.uleb128 0x16
 670 0262 14000000 		.4byte	.LVL15
ARM GAS  C:\Users\JOHNSO~1\AppData\Local\Temp\ccGqWBaL.s 			page 20


 671 0266 0A010000 		.4byte	0x10a
 672 026a 74020000 		.4byte	0x274
 673 026e 17       		.uleb128 0x17
 674 026f 01       		.uleb128 0x1
 675 0270 50       		.byte	0x50
 676 0271 01       		.uleb128 0x1
 677 0272 33       		.byte	0x33
 678 0273 00       		.byte	0
 679 0274 10       		.uleb128 0x10
 680 0275 18000000 		.4byte	.LVL16
 681 0279 94010000 		.4byte	0x194
 682 027d 00       		.byte	0
 683 027e 0A       		.uleb128 0xa
 684 027f 06000000 		.4byte	.LASF30
 685 0283 01       		.byte	0x1
 686 0284 80       		.byte	0x80
 687 0285 00000000 		.4byte	.LFB4
 688 0289 14000000 		.4byte	.LFE4-.LFB4
 689 028d 01       		.uleb128 0x1
 690 028e 9C       		.byte	0x9c
 691 028f A6020000 		.4byte	0x2a6
 692 0293 10       		.uleb128 0x10
 693 0294 06000000 		.4byte	.LVL18
 694 0298 BC010000 		.4byte	0x1bc
 695 029c 10       		.uleb128 0x10
 696 029d 0C000000 		.4byte	.LVL19
 697 02a1 D2000000 		.4byte	0xd2
 698 02a5 00       		.byte	0
 699 02a6 14       		.uleb128 0x14
 700 02a7 39010000 		.4byte	.LASF31
 701 02ab 01       		.byte	0x1
 702 02ac 7001     		.2byte	0x170
 703 02ae 00000000 		.4byte	.LFB13
 704 02b2 0C000000 		.4byte	.LFE13-.LFB13
 705 02b6 01       		.uleb128 0x1
 706 02b7 9C       		.byte	0x9c
 707 02b8 14       		.uleb128 0x14
 708 02b9 99010000 		.4byte	.LASF32
 709 02bd 01       		.byte	0x1
 710 02be 8901     		.2byte	0x189
 711 02c0 00000000 		.4byte	.LFB14
 712 02c4 0C000000 		.4byte	.LFE14-.LFB14
 713 02c8 01       		.uleb128 0x1
 714 02c9 9C       		.byte	0x9c
 715 02ca 18       		.uleb128 0x18
 716 02cb A7000000 		.4byte	0xa7
 717 02cf DA020000 		.4byte	0x2da
 718 02d3 19       		.uleb128 0x19
 719 02d4 BA000000 		.4byte	0xba
 720 02d8 2F       		.byte	0x2f
 721 02d9 00       		.byte	0
 722 02da 1A       		.uleb128 0x1a
 723 02db C2020000 		.4byte	.LASF37
 724 02df 01       		.byte	0x1
 725 02e0 20       		.byte	0x20
 726 02e1 CA020000 		.4byte	0x2ca
 727 02e5 1B       		.uleb128 0x1b
ARM GAS  C:\Users\JOHNSO~1\AppData\Local\Temp\ccGqWBaL.s 			page 21


 728 02e6 57010000 		.4byte	.LASF38
 729 02ea 03       		.byte	0x3
 730 02eb 5E       		.byte	0x5e
 731 02ec 6B000000 		.4byte	0x6b
 732 02f0 1C       		.uleb128 0x1c
 733 02f1 83010000 		.4byte	.LASF39
 734 02f5 03       		.byte	0x3
 735 02f6 5F       		.byte	0x5f
 736 02f7 1D       		.uleb128 0x1d
 737 02f8 6B000000 		.4byte	0x6b
 738 02fc 00       		.byte	0
 739 02fd 00       		.byte	0
 740              		.section	.debug_abbrev,"",%progbits
 741              	.Ldebug_abbrev0:
 742 0000 01       		.uleb128 0x1
 743 0001 11       		.uleb128 0x11
 744 0002 01       		.byte	0x1
 745 0003 25       		.uleb128 0x25
 746 0004 0E       		.uleb128 0xe
 747 0005 13       		.uleb128 0x13
 748 0006 0B       		.uleb128 0xb
 749 0007 03       		.uleb128 0x3
 750 0008 0E       		.uleb128 0xe
 751 0009 1B       		.uleb128 0x1b
 752 000a 0E       		.uleb128 0xe
 753 000b 55       		.uleb128 0x55
 754 000c 17       		.uleb128 0x17
 755 000d 11       		.uleb128 0x11
 756 000e 01       		.uleb128 0x1
 757 000f 10       		.uleb128 0x10
 758 0010 17       		.uleb128 0x17
 759 0011 00       		.byte	0
 760 0012 00       		.byte	0
 761 0013 02       		.uleb128 0x2
 762 0014 24       		.uleb128 0x24
 763 0015 00       		.byte	0
 764 0016 0B       		.uleb128 0xb
 765 0017 0B       		.uleb128 0xb
 766 0018 3E       		.uleb128 0x3e
 767 0019 0B       		.uleb128 0xb
 768 001a 03       		.uleb128 0x3
 769 001b 0E       		.uleb128 0xe
 770 001c 00       		.byte	0
 771 001d 00       		.byte	0
 772 001e 03       		.uleb128 0x3
 773 001f 24       		.uleb128 0x24
 774 0020 00       		.byte	0
 775 0021 0B       		.uleb128 0xb
 776 0022 0B       		.uleb128 0xb
 777 0023 3E       		.uleb128 0x3e
 778 0024 0B       		.uleb128 0xb
 779 0025 03       		.uleb128 0x3
 780 0026 08       		.uleb128 0x8
 781 0027 00       		.byte	0
 782 0028 00       		.byte	0
 783 0029 04       		.uleb128 0x4
 784 002a 16       		.uleb128 0x16
ARM GAS  C:\Users\JOHNSO~1\AppData\Local\Temp\ccGqWBaL.s 			page 22


 785 002b 00       		.byte	0
 786 002c 03       		.uleb128 0x3
 787 002d 0E       		.uleb128 0xe
 788 002e 3A       		.uleb128 0x3a
 789 002f 0B       		.uleb128 0xb
 790 0030 3B       		.uleb128 0x3b
 791 0031 0B       		.uleb128 0xb
 792 0032 49       		.uleb128 0x49
 793 0033 13       		.uleb128 0x13
 794 0034 00       		.byte	0
 795 0035 00       		.byte	0
 796 0036 05       		.uleb128 0x5
 797 0037 16       		.uleb128 0x16
 798 0038 00       		.byte	0
 799 0039 03       		.uleb128 0x3
 800 003a 0E       		.uleb128 0xe
 801 003b 3A       		.uleb128 0x3a
 802 003c 0B       		.uleb128 0xb
 803 003d 3B       		.uleb128 0x3b
 804 003e 05       		.uleb128 0x5
 805 003f 49       		.uleb128 0x49
 806 0040 13       		.uleb128 0x13
 807 0041 00       		.byte	0
 808 0042 00       		.byte	0
 809 0043 06       		.uleb128 0x6
 810 0044 35       		.uleb128 0x35
 811 0045 00       		.byte	0
 812 0046 49       		.uleb128 0x49
 813 0047 13       		.uleb128 0x13
 814 0048 00       		.byte	0
 815 0049 00       		.byte	0
 816 004a 07       		.uleb128 0x7
 817 004b 0F       		.uleb128 0xf
 818 004c 00       		.byte	0
 819 004d 0B       		.uleb128 0xb
 820 004e 0B       		.uleb128 0xb
 821 004f 49       		.uleb128 0x49
 822 0050 13       		.uleb128 0x13
 823 0051 00       		.byte	0
 824 0052 00       		.byte	0
 825 0053 08       		.uleb128 0x8
 826 0054 15       		.uleb128 0x15
 827 0055 00       		.byte	0
 828 0056 27       		.uleb128 0x27
 829 0057 19       		.uleb128 0x19
 830 0058 00       		.byte	0
 831 0059 00       		.byte	0
 832 005a 09       		.uleb128 0x9
 833 005b 2E       		.uleb128 0x2e
 834 005c 00       		.byte	0
 835 005d 3F       		.uleb128 0x3f
 836 005e 19       		.uleb128 0x19
 837 005f 03       		.uleb128 0x3
 838 0060 0E       		.uleb128 0xe
 839 0061 3A       		.uleb128 0x3a
 840 0062 0B       		.uleb128 0xb
 841 0063 3B       		.uleb128 0x3b
ARM GAS  C:\Users\JOHNSO~1\AppData\Local\Temp\ccGqWBaL.s 			page 23


 842 0064 0B       		.uleb128 0xb
 843 0065 27       		.uleb128 0x27
 844 0066 19       		.uleb128 0x19
 845 0067 11       		.uleb128 0x11
 846 0068 01       		.uleb128 0x1
 847 0069 12       		.uleb128 0x12
 848 006a 06       		.uleb128 0x6
 849 006b 40       		.uleb128 0x40
 850 006c 18       		.uleb128 0x18
 851 006d 9742     		.uleb128 0x2117
 852 006f 19       		.uleb128 0x19
 853 0070 00       		.byte	0
 854 0071 00       		.byte	0
 855 0072 0A       		.uleb128 0xa
 856 0073 2E       		.uleb128 0x2e
 857 0074 01       		.byte	0x1
 858 0075 3F       		.uleb128 0x3f
 859 0076 19       		.uleb128 0x19
 860 0077 03       		.uleb128 0x3
 861 0078 0E       		.uleb128 0xe
 862 0079 3A       		.uleb128 0x3a
 863 007a 0B       		.uleb128 0xb
 864 007b 3B       		.uleb128 0x3b
 865 007c 0B       		.uleb128 0xb
 866 007d 27       		.uleb128 0x27
 867 007e 19       		.uleb128 0x19
 868 007f 11       		.uleb128 0x11
 869 0080 01       		.uleb128 0x1
 870 0081 12       		.uleb128 0x12
 871 0082 06       		.uleb128 0x6
 872 0083 40       		.uleb128 0x40
 873 0084 18       		.uleb128 0x18
 874 0085 9742     		.uleb128 0x2117
 875 0087 19       		.uleb128 0x19
 876 0088 01       		.uleb128 0x1
 877 0089 13       		.uleb128 0x13
 878 008a 00       		.byte	0
 879 008b 00       		.byte	0
 880 008c 0B       		.uleb128 0xb
 881 008d 05       		.uleb128 0x5
 882 008e 00       		.byte	0
 883 008f 03       		.uleb128 0x3
 884 0090 0E       		.uleb128 0xe
 885 0091 3A       		.uleb128 0x3a
 886 0092 0B       		.uleb128 0xb
 887 0093 3B       		.uleb128 0x3b
 888 0094 0B       		.uleb128 0xb
 889 0095 49       		.uleb128 0x49
 890 0096 13       		.uleb128 0x13
 891 0097 02       		.uleb128 0x2
 892 0098 18       		.uleb128 0x18
 893 0099 00       		.byte	0
 894 009a 00       		.byte	0
 895 009b 0C       		.uleb128 0xc
 896 009c 2E       		.uleb128 0x2e
 897 009d 00       		.byte	0
 898 009e 3F       		.uleb128 0x3f
ARM GAS  C:\Users\JOHNSO~1\AppData\Local\Temp\ccGqWBaL.s 			page 24


 899 009f 19       		.uleb128 0x19
 900 00a0 03       		.uleb128 0x3
 901 00a1 0E       		.uleb128 0xe
 902 00a2 3A       		.uleb128 0x3a
 903 00a3 0B       		.uleb128 0xb
 904 00a4 3B       		.uleb128 0x3b
 905 00a5 0B       		.uleb128 0xb
 906 00a6 27       		.uleb128 0x27
 907 00a7 19       		.uleb128 0x19
 908 00a8 49       		.uleb128 0x49
 909 00a9 13       		.uleb128 0x13
 910 00aa 11       		.uleb128 0x11
 911 00ab 01       		.uleb128 0x1
 912 00ac 12       		.uleb128 0x12
 913 00ad 06       		.uleb128 0x6
 914 00ae 40       		.uleb128 0x40
 915 00af 18       		.uleb128 0x18
 916 00b0 9742     		.uleb128 0x2117
 917 00b2 19       		.uleb128 0x19
 918 00b3 00       		.byte	0
 919 00b4 00       		.byte	0
 920 00b5 0D       		.uleb128 0xd
 921 00b6 05       		.uleb128 0x5
 922 00b7 00       		.byte	0
 923 00b8 03       		.uleb128 0x3
 924 00b9 0E       		.uleb128 0xe
 925 00ba 3A       		.uleb128 0x3a
 926 00bb 0B       		.uleb128 0xb
 927 00bc 3B       		.uleb128 0x3b
 928 00bd 0B       		.uleb128 0xb
 929 00be 49       		.uleb128 0x49
 930 00bf 13       		.uleb128 0x13
 931 00c0 02       		.uleb128 0x2
 932 00c1 17       		.uleb128 0x17
 933 00c2 00       		.byte	0
 934 00c3 00       		.byte	0
 935 00c4 0E       		.uleb128 0xe
 936 00c5 34       		.uleb128 0x34
 937 00c6 00       		.byte	0
 938 00c7 03       		.uleb128 0x3
 939 00c8 0E       		.uleb128 0xe
 940 00c9 3A       		.uleb128 0x3a
 941 00ca 0B       		.uleb128 0xb
 942 00cb 3B       		.uleb128 0x3b
 943 00cc 0B       		.uleb128 0xb
 944 00cd 49       		.uleb128 0x49
 945 00ce 13       		.uleb128 0x13
 946 00cf 02       		.uleb128 0x2
 947 00d0 17       		.uleb128 0x17
 948 00d1 00       		.byte	0
 949 00d2 00       		.byte	0
 950 00d3 0F       		.uleb128 0xf
 951 00d4 34       		.uleb128 0x34
 952 00d5 00       		.byte	0
 953 00d6 03       		.uleb128 0x3
 954 00d7 0E       		.uleb128 0xe
 955 00d8 3A       		.uleb128 0x3a
ARM GAS  C:\Users\JOHNSO~1\AppData\Local\Temp\ccGqWBaL.s 			page 25


 956 00d9 0B       		.uleb128 0xb
 957 00da 3B       		.uleb128 0x3b
 958 00db 0B       		.uleb128 0xb
 959 00dc 49       		.uleb128 0x49
 960 00dd 13       		.uleb128 0x13
 961 00de 1C       		.uleb128 0x1c
 962 00df 0B       		.uleb128 0xb
 963 00e0 00       		.byte	0
 964 00e1 00       		.byte	0
 965 00e2 10       		.uleb128 0x10
 966 00e3 898201   		.uleb128 0x4109
 967 00e6 00       		.byte	0
 968 00e7 11       		.uleb128 0x11
 969 00e8 01       		.uleb128 0x1
 970 00e9 31       		.uleb128 0x31
 971 00ea 13       		.uleb128 0x13
 972 00eb 00       		.byte	0
 973 00ec 00       		.byte	0
 974 00ed 11       		.uleb128 0x11
 975 00ee 2E       		.uleb128 0x2e
 976 00ef 01       		.byte	0x1
 977 00f0 3F       		.uleb128 0x3f
 978 00f1 19       		.uleb128 0x19
 979 00f2 03       		.uleb128 0x3
 980 00f3 0E       		.uleb128 0xe
 981 00f4 3A       		.uleb128 0x3a
 982 00f5 0B       		.uleb128 0xb
 983 00f6 3B       		.uleb128 0x3b
 984 00f7 05       		.uleb128 0x5
 985 00f8 27       		.uleb128 0x27
 986 00f9 19       		.uleb128 0x19
 987 00fa 49       		.uleb128 0x49
 988 00fb 13       		.uleb128 0x13
 989 00fc 11       		.uleb128 0x11
 990 00fd 01       		.uleb128 0x1
 991 00fe 12       		.uleb128 0x12
 992 00ff 06       		.uleb128 0x6
 993 0100 40       		.uleb128 0x40
 994 0101 18       		.uleb128 0x18
 995 0102 9742     		.uleb128 0x2117
 996 0104 19       		.uleb128 0x19
 997 0105 01       		.uleb128 0x1
 998 0106 13       		.uleb128 0x13
 999 0107 00       		.byte	0
 1000 0108 00       		.byte	0
 1001 0109 12       		.uleb128 0x12
 1002 010a 34       		.uleb128 0x34
 1003 010b 00       		.byte	0
 1004 010c 03       		.uleb128 0x3
 1005 010d 0E       		.uleb128 0xe
 1006 010e 3A       		.uleb128 0x3a
 1007 010f 0B       		.uleb128 0xb
 1008 0110 3B       		.uleb128 0x3b
 1009 0111 05       		.uleb128 0x5
 1010 0112 49       		.uleb128 0x49
 1011 0113 13       		.uleb128 0x13
 1012 0114 02       		.uleb128 0x2
ARM GAS  C:\Users\JOHNSO~1\AppData\Local\Temp\ccGqWBaL.s 			page 26


 1013 0115 17       		.uleb128 0x17
 1014 0116 00       		.byte	0
 1015 0117 00       		.byte	0
 1016 0118 13       		.uleb128 0x13
 1017 0119 34       		.uleb128 0x34
 1018 011a 00       		.byte	0
 1019 011b 03       		.uleb128 0x3
 1020 011c 0E       		.uleb128 0xe
 1021 011d 3A       		.uleb128 0x3a
 1022 011e 0B       		.uleb128 0xb
 1023 011f 3B       		.uleb128 0x3b
 1024 0120 05       		.uleb128 0x5
 1025 0121 49       		.uleb128 0x49
 1026 0122 13       		.uleb128 0x13
 1027 0123 1C       		.uleb128 0x1c
 1028 0124 0B       		.uleb128 0xb
 1029 0125 00       		.byte	0
 1030 0126 00       		.byte	0
 1031 0127 14       		.uleb128 0x14
 1032 0128 2E       		.uleb128 0x2e
 1033 0129 00       		.byte	0
 1034 012a 3F       		.uleb128 0x3f
 1035 012b 19       		.uleb128 0x19
 1036 012c 03       		.uleb128 0x3
 1037 012d 0E       		.uleb128 0xe
 1038 012e 3A       		.uleb128 0x3a
 1039 012f 0B       		.uleb128 0xb
 1040 0130 3B       		.uleb128 0x3b
 1041 0131 05       		.uleb128 0x5
 1042 0132 27       		.uleb128 0x27
 1043 0133 19       		.uleb128 0x19
 1044 0134 11       		.uleb128 0x11
 1045 0135 01       		.uleb128 0x1
 1046 0136 12       		.uleb128 0x12
 1047 0137 06       		.uleb128 0x6
 1048 0138 40       		.uleb128 0x40
 1049 0139 18       		.uleb128 0x18
 1050 013a 9742     		.uleb128 0x2117
 1051 013c 19       		.uleb128 0x19
 1052 013d 00       		.byte	0
 1053 013e 00       		.byte	0
 1054 013f 15       		.uleb128 0x15
 1055 0140 2E       		.uleb128 0x2e
 1056 0141 00       		.byte	0
 1057 0142 3F       		.uleb128 0x3f
 1058 0143 19       		.uleb128 0x19
 1059 0144 03       		.uleb128 0x3
 1060 0145 0E       		.uleb128 0xe
 1061 0146 3A       		.uleb128 0x3a
 1062 0147 0B       		.uleb128 0xb
 1063 0148 3B       		.uleb128 0x3b
 1064 0149 05       		.uleb128 0x5
 1065 014a 27       		.uleb128 0x27
 1066 014b 19       		.uleb128 0x19
 1067 014c 49       		.uleb128 0x49
 1068 014d 13       		.uleb128 0x13
 1069 014e 11       		.uleb128 0x11
ARM GAS  C:\Users\JOHNSO~1\AppData\Local\Temp\ccGqWBaL.s 			page 27


 1070 014f 01       		.uleb128 0x1
 1071 0150 12       		.uleb128 0x12
 1072 0151 06       		.uleb128 0x6
 1073 0152 40       		.uleb128 0x40
 1074 0153 18       		.uleb128 0x18
 1075 0154 9742     		.uleb128 0x2117
 1076 0156 19       		.uleb128 0x19
 1077 0157 00       		.byte	0
 1078 0158 00       		.byte	0
 1079 0159 16       		.uleb128 0x16
 1080 015a 898201   		.uleb128 0x4109
 1081 015d 01       		.byte	0x1
 1082 015e 11       		.uleb128 0x11
 1083 015f 01       		.uleb128 0x1
 1084 0160 31       		.uleb128 0x31
 1085 0161 13       		.uleb128 0x13
 1086 0162 01       		.uleb128 0x1
 1087 0163 13       		.uleb128 0x13
 1088 0164 00       		.byte	0
 1089 0165 00       		.byte	0
 1090 0166 17       		.uleb128 0x17
 1091 0167 8A8201   		.uleb128 0x410a
 1092 016a 00       		.byte	0
 1093 016b 02       		.uleb128 0x2
 1094 016c 18       		.uleb128 0x18
 1095 016d 9142     		.uleb128 0x2111
 1096 016f 18       		.uleb128 0x18
 1097 0170 00       		.byte	0
 1098 0171 00       		.byte	0
 1099 0172 18       		.uleb128 0x18
 1100 0173 01       		.uleb128 0x1
 1101 0174 01       		.byte	0x1
 1102 0175 49       		.uleb128 0x49
 1103 0176 13       		.uleb128 0x13
 1104 0177 01       		.uleb128 0x1
 1105 0178 13       		.uleb128 0x13
 1106 0179 00       		.byte	0
 1107 017a 00       		.byte	0
 1108 017b 19       		.uleb128 0x19
 1109 017c 21       		.uleb128 0x21
 1110 017d 00       		.byte	0
 1111 017e 49       		.uleb128 0x49
 1112 017f 13       		.uleb128 0x13
 1113 0180 2F       		.uleb128 0x2f
 1114 0181 0B       		.uleb128 0xb
 1115 0182 00       		.byte	0
 1116 0183 00       		.byte	0
 1117 0184 1A       		.uleb128 0x1a
 1118 0185 34       		.uleb128 0x34
 1119 0186 00       		.byte	0
 1120 0187 03       		.uleb128 0x3
 1121 0188 0E       		.uleb128 0xe
 1122 0189 3A       		.uleb128 0x3a
 1123 018a 0B       		.uleb128 0xb
 1124 018b 3B       		.uleb128 0x3b
 1125 018c 0B       		.uleb128 0xb
 1126 018d 49       		.uleb128 0x49
ARM GAS  C:\Users\JOHNSO~1\AppData\Local\Temp\ccGqWBaL.s 			page 28


 1127 018e 13       		.uleb128 0x13
 1128 018f 3F       		.uleb128 0x3f
 1129 0190 19       		.uleb128 0x19
 1130 0191 3C       		.uleb128 0x3c
 1131 0192 19       		.uleb128 0x19
 1132 0193 00       		.byte	0
 1133 0194 00       		.byte	0
 1134 0195 1B       		.uleb128 0x1b
 1135 0196 2E       		.uleb128 0x2e
 1136 0197 00       		.byte	0
 1137 0198 3F       		.uleb128 0x3f
 1138 0199 19       		.uleb128 0x19
 1139 019a 03       		.uleb128 0x3
 1140 019b 0E       		.uleb128 0xe
 1141 019c 3A       		.uleb128 0x3a
 1142 019d 0B       		.uleb128 0xb
 1143 019e 3B       		.uleb128 0x3b
 1144 019f 0B       		.uleb128 0xb
 1145 01a0 27       		.uleb128 0x27
 1146 01a1 19       		.uleb128 0x19
 1147 01a2 49       		.uleb128 0x49
 1148 01a3 13       		.uleb128 0x13
 1149 01a4 3C       		.uleb128 0x3c
 1150 01a5 19       		.uleb128 0x19
 1151 01a6 00       		.byte	0
 1152 01a7 00       		.byte	0
 1153 01a8 1C       		.uleb128 0x1c
 1154 01a9 2E       		.uleb128 0x2e
 1155 01aa 01       		.byte	0x1
 1156 01ab 3F       		.uleb128 0x3f
 1157 01ac 19       		.uleb128 0x19
 1158 01ad 03       		.uleb128 0x3
 1159 01ae 0E       		.uleb128 0xe
 1160 01af 3A       		.uleb128 0x3a
 1161 01b0 0B       		.uleb128 0xb
 1162 01b1 3B       		.uleb128 0x3b
 1163 01b2 0B       		.uleb128 0xb
 1164 01b3 27       		.uleb128 0x27
 1165 01b4 19       		.uleb128 0x19
 1166 01b5 3C       		.uleb128 0x3c
 1167 01b6 19       		.uleb128 0x19
 1168 01b7 00       		.byte	0
 1169 01b8 00       		.byte	0
 1170 01b9 1D       		.uleb128 0x1d
 1171 01ba 05       		.uleb128 0x5
 1172 01bb 00       		.byte	0
 1173 01bc 49       		.uleb128 0x49
 1174 01bd 13       		.uleb128 0x13
 1175 01be 00       		.byte	0
 1176 01bf 00       		.byte	0
 1177 01c0 00       		.byte	0
 1178              		.section	.debug_loc,"",%progbits
 1179              	.Ldebug_loc0:
 1180              	.LLST0:
 1181 0000 00000000 		.4byte	.LVL1
 1182 0004 07000000 		.4byte	.LVL3-1
 1183 0008 0100     		.2byte	0x1
ARM GAS  C:\Users\JOHNSO~1\AppData\Local\Temp\ccGqWBaL.s 			page 29


 1184 000a 50       		.byte	0x50
 1185 000b 07000000 		.4byte	.LVL3-1
 1186 000f 28000000 		.4byte	.LFE8
 1187 0013 0400     		.2byte	0x4
 1188 0015 F3       		.byte	0xf3
 1189 0016 01       		.uleb128 0x1
 1190 0017 50       		.byte	0x50
 1191 0018 9F       		.byte	0x9f
 1192 0019 00000000 		.4byte	0
 1193 001d 00000000 		.4byte	0
 1194              	.LLST1:
 1195 0021 08000000 		.4byte	.LVL3
 1196 0025 1B000000 		.4byte	.LVL4-1
 1197 0029 0100     		.2byte	0x1
 1198 002b 50       		.byte	0x50
 1199 002c 00000000 		.4byte	0
 1200 0030 00000000 		.4byte	0
 1201              	.LLST2:
 1202 0034 06000000 		.4byte	.LVL6
 1203 0038 08000000 		.4byte	.LVL7
 1204 003c 0500     		.2byte	0x5
 1205 003e 70       		.byte	0x70
 1206 003f 00       		.sleb128 0
 1207 0040 4E       		.byte	0x4e
 1208 0041 25       		.byte	0x25
 1209 0042 9F       		.byte	0x9f
 1210 0043 08000000 		.4byte	.LVL7
 1211 0047 10000000 		.4byte	.LFE9
 1212 004b 0100     		.2byte	0x1
 1213 004d 50       		.byte	0x50
 1214 004e 00000000 		.4byte	0
 1215 0052 00000000 		.4byte	0
 1216              	.LLST3:
 1217 0056 00000000 		.4byte	.LVL12
 1218 005a 07000000 		.4byte	.LVL13-1
 1219 005e 0100     		.2byte	0x1
 1220 0060 50       		.byte	0x50
 1221 0061 07000000 		.4byte	.LVL13-1
 1222 0065 18000000 		.4byte	.LVL17
 1223 0069 0100     		.2byte	0x1
 1224 006b 54       		.byte	0x54
 1225 006c 18000000 		.4byte	.LVL17
 1226 0070 1A000000 		.4byte	.LFE3
 1227 0074 0400     		.2byte	0x4
 1228 0076 F3       		.byte	0xf3
 1229 0077 01       		.uleb128 0x1
 1230 0078 50       		.byte	0x50
 1231 0079 9F       		.byte	0x9f
 1232 007a 00000000 		.4byte	0
 1233 007e 00000000 		.4byte	0
 1234              		.section	.debug_aranges,"",%progbits
 1235 0000 7C000000 		.4byte	0x7c
 1236 0004 0200     		.2byte	0x2
 1237 0006 00000000 		.4byte	.Ldebug_info0
 1238 000a 04       		.byte	0x4
 1239 000b 00       		.byte	0
 1240 000c 0000     		.2byte	0
ARM GAS  C:\Users\JOHNSO~1\AppData\Local\Temp\ccGqWBaL.s 			page 30


 1241 000e 0000     		.2byte	0
 1242 0010 00000000 		.4byte	.LFB5
 1243 0014 02000000 		.4byte	.LFE5-.LFB5
 1244 0018 00000000 		.4byte	.LFB6
 1245 001c 0C000000 		.4byte	.LFE6-.LFB6
 1246 0020 00000000 		.4byte	.LFB7
 1247 0024 0C000000 		.4byte	.LFE7-.LFB7
 1248 0028 00000000 		.4byte	.LFB8
 1249 002c 28000000 		.4byte	.LFE8-.LFB8
 1250 0030 00000000 		.4byte	.LFB9
 1251 0034 10000000 		.4byte	.LFE9-.LFB9
 1252 0038 00000000 		.4byte	.LFB10
 1253 003c 0C000000 		.4byte	.LFE10-.LFB10
 1254 0040 00000000 		.4byte	.LFB11
 1255 0044 14000000 		.4byte	.LFE11-.LFB11
 1256 0048 00000000 		.4byte	.LFB12
 1257 004c 0C000000 		.4byte	.LFE12-.LFB12
 1258 0050 00000000 		.4byte	.LFB2
 1259 0054 1C000000 		.4byte	.LFE2-.LFB2
 1260 0058 00000000 		.4byte	.LFB3
 1261 005c 1A000000 		.4byte	.LFE3-.LFB3
 1262 0060 00000000 		.4byte	.LFB4
 1263 0064 14000000 		.4byte	.LFE4-.LFB4
 1264 0068 00000000 		.4byte	.LFB13
 1265 006c 0C000000 		.4byte	.LFE13-.LFB13
 1266 0070 00000000 		.4byte	.LFB14
 1267 0074 0C000000 		.4byte	.LFE14-.LFB14
 1268 0078 00000000 		.4byte	0
 1269 007c 00000000 		.4byte	0
 1270              		.section	.debug_ranges,"",%progbits
 1271              	.Ldebug_ranges0:
 1272 0000 00000000 		.4byte	.LFB5
 1273 0004 02000000 		.4byte	.LFE5
 1274 0008 00000000 		.4byte	.LFB6
 1275 000c 0C000000 		.4byte	.LFE6
 1276 0010 00000000 		.4byte	.LFB7
 1277 0014 0C000000 		.4byte	.LFE7
 1278 0018 00000000 		.4byte	.LFB8
 1279 001c 28000000 		.4byte	.LFE8
 1280 0020 00000000 		.4byte	.LFB9
 1281 0024 10000000 		.4byte	.LFE9
 1282 0028 00000000 		.4byte	.LFB10
 1283 002c 0C000000 		.4byte	.LFE10
 1284 0030 00000000 		.4byte	.LFB11
 1285 0034 14000000 		.4byte	.LFE11
 1286 0038 00000000 		.4byte	.LFB12
 1287 003c 0C000000 		.4byte	.LFE12
 1288 0040 00000000 		.4byte	.LFB2
 1289 0044 1C000000 		.4byte	.LFE2
 1290 0048 00000000 		.4byte	.LFB3
 1291 004c 1A000000 		.4byte	.LFE3
 1292 0050 00000000 		.4byte	.LFB4
 1293 0054 14000000 		.4byte	.LFE4
 1294 0058 00000000 		.4byte	.LFB13
 1295 005c 0C000000 		.4byte	.LFE13
 1296 0060 00000000 		.4byte	.LFB14
 1297 0064 0C000000 		.4byte	.LFE14
ARM GAS  C:\Users\JOHNSO~1\AppData\Local\Temp\ccGqWBaL.s 			page 31


 1298 0068 00000000 		.4byte	0
 1299 006c 00000000 		.4byte	0
 1300              		.section	.debug_line,"",%progbits
 1301              	.Ldebug_line0:
 1302 0000 6A010000 		.section	.debug_str,"MS",%progbits,1
 1302      02006C00 
 1302      00000201 
 1302      FB0E0D00 
 1302      01010101 
 1303              	.LASF14:
 1304 0000 72656733 		.ascii	"reg32\000"
 1304      3200
 1305              	.LASF30:
 1306 0006 496E7075 		.ascii	"Input_1_Int_Stop\000"
 1306      745F315F 
 1306      496E745F 
 1306      53746F70 
 1306      00
 1307              	.LASF34:
 1308 0017 2E5C4765 		.ascii	".\\Generated_Source\\PSoC4\\Input_1_Int.c\000"
 1308      6E657261 
 1308      7465645F 
 1308      536F7572 
 1308      63655C50 
 1309              	.LASF4:
 1310 003e 6C6F6E67 		.ascii	"long int\000"
 1310      20696E74 
 1310      00
 1311              	.LASF3:
 1312 0047 73686F72 		.ascii	"short unsigned int\000"
 1312      7420756E 
 1312      7369676E 
 1312      65642069 
 1312      6E7400
 1313              	.LASF28:
 1314 005a 496E7075 		.ascii	"Input_1_Int_Start\000"
 1314      745F315F 
 1314      496E745F 
 1314      53746172 
 1314      7400
 1315              	.LASF25:
 1316 006c 496E7075 		.ascii	"Input_1_Int_GetVector\000"
 1316      745F315F 
 1316      496E745F 
 1316      47657456 
 1316      6563746F 
 1317              	.LASF18:
 1318 0082 496E7075 		.ascii	"Input_1_Int_SetPriority\000"
 1318      745F315F 
 1318      496E745F 
 1318      53657450 
 1318      72696F72 
 1319              	.LASF11:
 1320 009a 666C6F61 		.ascii	"float\000"
 1320      7400
 1321              	.LASF7:
 1322 00a0 6C6F6E67 		.ascii	"long long unsigned int\000"
ARM GAS  C:\Users\JOHNSO~1\AppData\Local\Temp\ccGqWBaL.s 			page 32


 1322      206C6F6E 
 1322      6720756E 
 1322      7369676E 
 1322      65642069 
 1323              	.LASF1:
 1324 00b7 756E7369 		.ascii	"unsigned char\000"
 1324      676E6564 
 1324      20636861 
 1324      7200
 1325              	.LASF23:
 1326 00c5 496E7075 		.ascii	"Input_1_Int_Interrupt\000"
 1326      745F315F 
 1326      496E745F 
 1326      496E7465 
 1326      72727570 
 1327              	.LASF29:
 1328 00db 496E7075 		.ascii	"Input_1_Int_StartEx\000"
 1328      745F315F 
 1328      496E745F 
 1328      53746172 
 1328      74457800 
 1329              	.LASF21:
 1330 00ef 696E7465 		.ascii	"interruptState\000"
 1330      72727570 
 1330      74537461 
 1330      746500
 1331              	.LASF5:
 1332 00fe 6C6F6E67 		.ascii	"long unsigned int\000"
 1332      20756E73 
 1332      69676E65 
 1332      6420696E 
 1332      7400
 1333              	.LASF9:
 1334 0110 75696E74 		.ascii	"uint8\000"
 1334      3800
 1335              	.LASF20:
 1336 0116 7072696F 		.ascii	"priority\000"
 1336      72697479 
 1336      00
 1337              	.LASF24:
 1338 011f 496E7075 		.ascii	"Input_1_Int_Enable\000"
 1338      745F315F 
 1338      496E745F 
 1338      456E6162 
 1338      6C6500
 1339              	.LASF12:
 1340 0132 646F7562 		.ascii	"double\000"
 1340      6C6500
 1341              	.LASF31:
 1342 0139 496E7075 		.ascii	"Input_1_Int_SetPending\000"
 1342      745F315F 
 1342      496E745F 
 1342      53657450 
 1342      656E6469 
 1343              	.LASF10:
 1344 0150 75696E74 		.ascii	"uint32\000"
 1344      333200
ARM GAS  C:\Users\JOHNSO~1\AppData\Local\Temp\ccGqWBaL.s 			page 33


 1345              	.LASF38:
 1346 0157 4379456E 		.ascii	"CyEnterCriticalSection\000"
 1346      74657243 
 1346      72697469 
 1346      63616C53 
 1346      65637469 
 1347              	.LASF8:
 1348 016e 756E7369 		.ascii	"unsigned int\000"
 1348      676E6564 
 1348      20696E74 
 1348      00
 1349              	.LASF19:
 1350 017b 61646472 		.ascii	"address\000"
 1350      65737300 
 1351              	.LASF39:
 1352 0183 43794578 		.ascii	"CyExitCriticalSection\000"
 1352      69744372 
 1352      69746963 
 1352      616C5365 
 1352      6374696F 
 1353              	.LASF32:
 1354 0199 496E7075 		.ascii	"Input_1_Int_ClearPending\000"
 1354      745F315F 
 1354      496E745F 
 1354      436C6561 
 1354      7250656E 
 1355              	.LASF27:
 1356 01b2 496E7075 		.ascii	"Input_1_Int_Disable\000"
 1356      745F315F 
 1356      496E745F 
 1356      44697361 
 1356      626C6500 
 1357              	.LASF33:
 1358 01c6 474E5520 		.ascii	"GNU C 4.8.4 20140526 (release) [ARM/embedded-4_8-br"
 1358      4320342E 
 1358      382E3420 
 1358      32303134 
 1358      30353236 
 1359 01f9 616E6368 		.ascii	"anch revision 211358] -mcpu=cortex-m0 -mthumb -g -O"
 1359      20726576 
 1359      6973696F 
 1359      6E203231 
 1359      31333538 
 1360 022c 67202D66 		.ascii	"g -ffunction-sections\000"
 1360      66756E63 
 1360      74696F6E 
 1360      2D736563 
 1360      74696F6E 
 1361              	.LASF35:
 1362 0242 443A5C4D 		.ascii	"D:\\MyDocs\\Documents\\PSoC Creator\\Pneumatic Walk"
 1362      79446F63 
 1362      735C446F 
 1362      63756D65 
 1362      6E74735C 
 1363 0271 696E6720 		.ascii	"ing Robot\\Pneumatic Walking Robot.cydsn\000"
 1363      526F626F 
 1363      745C506E 
ARM GAS  C:\Users\JOHNSO~1\AppData\Local\Temp\ccGqWBaL.s 			page 34


 1363      65756D61 
 1363      74696320 
 1364              	.LASF15:
 1365 0299 63796973 		.ascii	"cyisraddress\000"
 1365      72616464 
 1365      72657373 
 1365      00
 1366              	.LASF16:
 1367 02a6 73697A65 		.ascii	"sizetype\000"
 1367      74797065 
 1367      00
 1368              	.LASF6:
 1369 02af 6C6F6E67 		.ascii	"long long int\000"
 1369      206C6F6E 
 1369      6720696E 
 1369      7400
 1370              	.LASF13:
 1371 02bd 63686172 		.ascii	"char\000"
 1371      00
 1372              	.LASF37:
 1373 02c2 43795261 		.ascii	"CyRamVectors\000"
 1373      6D566563 
 1373      746F7273 
 1373      00
 1374              	.LASF2:
 1375 02cf 73686F72 		.ascii	"short int\000"
 1375      7420696E 
 1375      7400
 1376              	.LASF22:
 1377 02d9 7072696F 		.ascii	"priorityOffset\000"
 1377      72697479 
 1377      4F666673 
 1377      657400
 1378              	.LASF17:
 1379 02e8 496E7075 		.ascii	"Input_1_Int_SetVector\000"
 1379      745F315F 
 1379      496E745F 
 1379      53657456 
 1379      6563746F 
 1380              	.LASF0:
 1381 02fe 7369676E 		.ascii	"signed char\000"
 1381      65642063 
 1381      68617200 
 1382              	.LASF26:
 1383 030a 496E7075 		.ascii	"Input_1_Int_GetState\000"
 1383      745F315F 
 1383      496E745F 
 1383      47657453 
 1383      74617465 
 1384              	.LASF36:
 1385 031f 496E7075 		.ascii	"Input_1_Int_GetPriority\000"
 1385      745F315F 
 1385      496E745F 
 1385      47657450 
 1385      72696F72 
 1386              		.ident	"GCC: (GNU Tools for ARM Embedded Processors) 4.8.4 20140526 (release) [ARM/embedded-4_8-br
