ARM GAS  C:\Users\JOHNSO~1\AppData\Local\Temp\ccbNqaaZ.s 			page 1


   1              		.cpu cortex-m0
   2              		.fpu softvfp
   3              		.eabi_attribute 20, 1
   4              		.eabi_attribute 21, 1
   5              		.eabi_attribute 23, 3
   6              		.eabi_attribute 24, 1
   7              		.eabi_attribute 25, 1
   8              		.eabi_attribute 26, 1
   9              		.eabi_attribute 30, 1
  10              		.eabi_attribute 34, 0
  11              		.eabi_attribute 18, 4
  12              		.code	16
  13              		.file	"PSoC_SPI_PM.c"
  14              		.text
  15              	.Ltext0:
  16              		.cfi_sections	.debug_frame
  17              		.section	.text.PSoC_SPI_SaveConfig,"ax",%progbits
  18              		.align	2
  19              		.global	PSoC_SPI_SaveConfig
  20              		.code	16
  21              		.thumb_func
  22              		.type	PSoC_SPI_SaveConfig, %function
  23              	PSoC_SPI_SaveConfig:
  24              	.LFB2:
  25              		.file 1 ".\\Generated_Source\\PSoC4\\PSoC_SPI_PM.c"
   1:.\Generated_Source\PSoC4/PSoC_SPI_PM.c **** /*******************************************************************************
   2:.\Generated_Source\PSoC4/PSoC_SPI_PM.c **** * File Name: PSoC_SPI_PM.c
   3:.\Generated_Source\PSoC4/PSoC_SPI_PM.c **** * Version 2.70
   4:.\Generated_Source\PSoC4/PSoC_SPI_PM.c **** *
   5:.\Generated_Source\PSoC4/PSoC_SPI_PM.c **** * Description:
   6:.\Generated_Source\PSoC4/PSoC_SPI_PM.c **** *  This file contains the setup, control and status commands to support
   7:.\Generated_Source\PSoC4/PSoC_SPI_PM.c **** *  component operations in low power mode.
   8:.\Generated_Source\PSoC4/PSoC_SPI_PM.c **** *
   9:.\Generated_Source\PSoC4/PSoC_SPI_PM.c **** * Note:
  10:.\Generated_Source\PSoC4/PSoC_SPI_PM.c **** *
  11:.\Generated_Source\PSoC4/PSoC_SPI_PM.c **** ********************************************************************************
  12:.\Generated_Source\PSoC4/PSoC_SPI_PM.c **** * Copyright 2008-2015, Cypress Semiconductor Corporation.  All rights reserved.
  13:.\Generated_Source\PSoC4/PSoC_SPI_PM.c **** * You may use this file only in accordance with the license, terms, conditions,
  14:.\Generated_Source\PSoC4/PSoC_SPI_PM.c **** * disclaimers, and limitations in the end user license agreement accompanying
  15:.\Generated_Source\PSoC4/PSoC_SPI_PM.c **** * the software package with which this file was provided.
  16:.\Generated_Source\PSoC4/PSoC_SPI_PM.c **** *******************************************************************************/
  17:.\Generated_Source\PSoC4/PSoC_SPI_PM.c **** 
  18:.\Generated_Source\PSoC4/PSoC_SPI_PM.c **** #include "PSoC_SPI_PVT.h"
  19:.\Generated_Source\PSoC4/PSoC_SPI_PM.c **** 
  20:.\Generated_Source\PSoC4/PSoC_SPI_PM.c **** static PSoC_SPI_BACKUP_STRUCT PSoC_SPI_backup = 
  21:.\Generated_Source\PSoC4/PSoC_SPI_PM.c **** {
  22:.\Generated_Source\PSoC4/PSoC_SPI_PM.c ****     PSoC_SPI_DISABLED,
  23:.\Generated_Source\PSoC4/PSoC_SPI_PM.c ****     PSoC_SPI_BITCTR_INIT,
  24:.\Generated_Source\PSoC4/PSoC_SPI_PM.c **** };
  25:.\Generated_Source\PSoC4/PSoC_SPI_PM.c **** 
  26:.\Generated_Source\PSoC4/PSoC_SPI_PM.c **** 
  27:.\Generated_Source\PSoC4/PSoC_SPI_PM.c **** /*******************************************************************************
  28:.\Generated_Source\PSoC4/PSoC_SPI_PM.c **** * Function Name: PSoC_SPI_SaveConfig
  29:.\Generated_Source\PSoC4/PSoC_SPI_PM.c **** ********************************************************************************
  30:.\Generated_Source\PSoC4/PSoC_SPI_PM.c **** *
  31:.\Generated_Source\PSoC4/PSoC_SPI_PM.c **** * Summary:
  32:.\Generated_Source\PSoC4/PSoC_SPI_PM.c **** *  Empty function. Included for consistency with other components.
ARM GAS  C:\Users\JOHNSO~1\AppData\Local\Temp\ccbNqaaZ.s 			page 2


  33:.\Generated_Source\PSoC4/PSoC_SPI_PM.c **** *
  34:.\Generated_Source\PSoC4/PSoC_SPI_PM.c **** * Parameters:
  35:.\Generated_Source\PSoC4/PSoC_SPI_PM.c **** *  None.
  36:.\Generated_Source\PSoC4/PSoC_SPI_PM.c **** *
  37:.\Generated_Source\PSoC4/PSoC_SPI_PM.c **** * Return:
  38:.\Generated_Source\PSoC4/PSoC_SPI_PM.c **** *  None.
  39:.\Generated_Source\PSoC4/PSoC_SPI_PM.c **** *
  40:.\Generated_Source\PSoC4/PSoC_SPI_PM.c **** *******************************************************************************/
  41:.\Generated_Source\PSoC4/PSoC_SPI_PM.c **** void PSoC_SPI_SaveConfig(void) 
  42:.\Generated_Source\PSoC4/PSoC_SPI_PM.c **** {
  26              		.loc 1 42 0
  27              		.cfi_startproc
  43:.\Generated_Source\PSoC4/PSoC_SPI_PM.c **** 
  44:.\Generated_Source\PSoC4/PSoC_SPI_PM.c **** }
  28              		.loc 1 44 0
  29              		@ sp needed
  30 0000 7047     		bx	lr
  31              		.cfi_endproc
  32              	.LFE2:
  33              		.size	PSoC_SPI_SaveConfig, .-PSoC_SPI_SaveConfig
  34 0002 C046     		.section	.text.PSoC_SPI_RestoreConfig,"ax",%progbits
  35              		.align	2
  36              		.global	PSoC_SPI_RestoreConfig
  37              		.code	16
  38              		.thumb_func
  39              		.type	PSoC_SPI_RestoreConfig, %function
  40              	PSoC_SPI_RestoreConfig:
  41              	.LFB3:
  45:.\Generated_Source\PSoC4/PSoC_SPI_PM.c **** 
  46:.\Generated_Source\PSoC4/PSoC_SPI_PM.c **** 
  47:.\Generated_Source\PSoC4/PSoC_SPI_PM.c **** /*******************************************************************************
  48:.\Generated_Source\PSoC4/PSoC_SPI_PM.c **** * Function Name: PSoC_SPI_RestoreConfig
  49:.\Generated_Source\PSoC4/PSoC_SPI_PM.c **** ********************************************************************************
  50:.\Generated_Source\PSoC4/PSoC_SPI_PM.c **** *
  51:.\Generated_Source\PSoC4/PSoC_SPI_PM.c **** * Summary:
  52:.\Generated_Source\PSoC4/PSoC_SPI_PM.c **** *  Empty function. Included for consistency with other components.
  53:.\Generated_Source\PSoC4/PSoC_SPI_PM.c **** *
  54:.\Generated_Source\PSoC4/PSoC_SPI_PM.c **** * Parameters:
  55:.\Generated_Source\PSoC4/PSoC_SPI_PM.c **** *  None.
  56:.\Generated_Source\PSoC4/PSoC_SPI_PM.c **** *
  57:.\Generated_Source\PSoC4/PSoC_SPI_PM.c **** * Return:
  58:.\Generated_Source\PSoC4/PSoC_SPI_PM.c **** *  None.
  59:.\Generated_Source\PSoC4/PSoC_SPI_PM.c **** *
  60:.\Generated_Source\PSoC4/PSoC_SPI_PM.c **** *******************************************************************************/
  61:.\Generated_Source\PSoC4/PSoC_SPI_PM.c **** void PSoC_SPI_RestoreConfig(void) 
  62:.\Generated_Source\PSoC4/PSoC_SPI_PM.c **** {
  42              		.loc 1 62 0
  43              		.cfi_startproc
  63:.\Generated_Source\PSoC4/PSoC_SPI_PM.c **** 
  64:.\Generated_Source\PSoC4/PSoC_SPI_PM.c **** }
  44              		.loc 1 64 0
  45              		@ sp needed
  46 0000 7047     		bx	lr
  47              		.cfi_endproc
  48              	.LFE3:
  49              		.size	PSoC_SPI_RestoreConfig, .-PSoC_SPI_RestoreConfig
  50 0002 C046     		.section	.text.PSoC_SPI_Sleep,"ax",%progbits
ARM GAS  C:\Users\JOHNSO~1\AppData\Local\Temp\ccbNqaaZ.s 			page 3


  51              		.align	2
  52              		.global	PSoC_SPI_Sleep
  53              		.code	16
  54              		.thumb_func
  55              		.type	PSoC_SPI_Sleep, %function
  56              	PSoC_SPI_Sleep:
  57              	.LFB4:
  65:.\Generated_Source\PSoC4/PSoC_SPI_PM.c **** 
  66:.\Generated_Source\PSoC4/PSoC_SPI_PM.c **** 
  67:.\Generated_Source\PSoC4/PSoC_SPI_PM.c **** /*******************************************************************************
  68:.\Generated_Source\PSoC4/PSoC_SPI_PM.c **** * Function Name: PSoC_SPI_Sleep
  69:.\Generated_Source\PSoC4/PSoC_SPI_PM.c **** ********************************************************************************
  70:.\Generated_Source\PSoC4/PSoC_SPI_PM.c **** *
  71:.\Generated_Source\PSoC4/PSoC_SPI_PM.c **** * Summary:
  72:.\Generated_Source\PSoC4/PSoC_SPI_PM.c **** *  Prepare SPI Slave Component goes to sleep.
  73:.\Generated_Source\PSoC4/PSoC_SPI_PM.c **** *
  74:.\Generated_Source\PSoC4/PSoC_SPI_PM.c **** * Parameters:
  75:.\Generated_Source\PSoC4/PSoC_SPI_PM.c **** *  None.
  76:.\Generated_Source\PSoC4/PSoC_SPI_PM.c **** *
  77:.\Generated_Source\PSoC4/PSoC_SPI_PM.c **** * Return:
  78:.\Generated_Source\PSoC4/PSoC_SPI_PM.c **** *  None.
  79:.\Generated_Source\PSoC4/PSoC_SPI_PM.c **** *
  80:.\Generated_Source\PSoC4/PSoC_SPI_PM.c **** * Global Variables:
  81:.\Generated_Source\PSoC4/PSoC_SPI_PM.c **** *  PSoC_SPI_backup - modified when non-retention registers are saved.
  82:.\Generated_Source\PSoC4/PSoC_SPI_PM.c **** *
  83:.\Generated_Source\PSoC4/PSoC_SPI_PM.c **** * Reentrant:
  84:.\Generated_Source\PSoC4/PSoC_SPI_PM.c **** *  No.
  85:.\Generated_Source\PSoC4/PSoC_SPI_PM.c **** *
  86:.\Generated_Source\PSoC4/PSoC_SPI_PM.c **** *******************************************************************************/
  87:.\Generated_Source\PSoC4/PSoC_SPI_PM.c **** void PSoC_SPI_Sleep(void) 
  88:.\Generated_Source\PSoC4/PSoC_SPI_PM.c **** {
  58              		.loc 1 88 0
  59              		.cfi_startproc
  60 0000 08B5     		push	{r3, lr}
  61              		.cfi_def_cfa_offset 8
  62              		.cfi_offset 3, -8
  63              		.cfi_offset 14, -4
  89:.\Generated_Source\PSoC4/PSoC_SPI_PM.c ****     /* Save components enable state */
  90:.\Generated_Source\PSoC4/PSoC_SPI_PM.c ****     if ((PSoC_SPI_TX_STATUS_ACTL_REG & PSoC_SPI_INT_ENABLE) != 0u)
  64              		.loc 1 90 0
  65 0002 074B     		ldr	r3, .L6
  66 0004 1B78     		ldrb	r3, [r3]
  67 0006 DA06     		lsl	r2, r3, #27
  68 0008 03D5     		bpl	.L4
  91:.\Generated_Source\PSoC4/PSoC_SPI_PM.c ****     {
  92:.\Generated_Source\PSoC4/PSoC_SPI_PM.c ****         PSoC_SPI_backup.enableState = 1u;
  69              		.loc 1 92 0
  70 000a 0122     		mov	r2, #1
  71 000c 054B     		ldr	r3, .L6+4
  72 000e 1A70     		strb	r2, [r3]
  73 0010 02E0     		b	.L5
  74              	.L4:
  93:.\Generated_Source\PSoC4/PSoC_SPI_PM.c ****     }
  94:.\Generated_Source\PSoC4/PSoC_SPI_PM.c ****     else /* Components block is disabled */
  95:.\Generated_Source\PSoC4/PSoC_SPI_PM.c ****     {
  96:.\Generated_Source\PSoC4/PSoC_SPI_PM.c ****         PSoC_SPI_backup.enableState = 0u;
  75              		.loc 1 96 0
ARM GAS  C:\Users\JOHNSO~1\AppData\Local\Temp\ccbNqaaZ.s 			page 4


  76 0012 0022     		mov	r2, #0
  77 0014 034B     		ldr	r3, .L6+4
  78 0016 1A70     		strb	r2, [r3]
  79              	.L5:
  97:.\Generated_Source\PSoC4/PSoC_SPI_PM.c ****     }
  98:.\Generated_Source\PSoC4/PSoC_SPI_PM.c **** 
  99:.\Generated_Source\PSoC4/PSoC_SPI_PM.c ****     PSoC_SPI_Stop();
  80              		.loc 1 99 0
  81 0018 FFF7FEFF 		bl	PSoC_SPI_Stop
  82              	.LVL0:
 100:.\Generated_Source\PSoC4/PSoC_SPI_PM.c **** 
 101:.\Generated_Source\PSoC4/PSoC_SPI_PM.c **** }
  83              		.loc 1 101 0
  84              		@ sp needed
  85 001c 08BD     		pop	{r3, pc}
  86              	.L7:
  87 001e C046     		.align	2
  88              	.L6:
  89 0020 92000F40 		.word	1074725010
  90 0024 00000000 		.word	.LANCHOR0
  91              		.cfi_endproc
  92              	.LFE4:
  93              		.size	PSoC_SPI_Sleep, .-PSoC_SPI_Sleep
  94              		.section	.text.PSoC_SPI_Wakeup,"ax",%progbits
  95              		.align	2
  96              		.global	PSoC_SPI_Wakeup
  97              		.code	16
  98              		.thumb_func
  99              		.type	PSoC_SPI_Wakeup, %function
 100              	PSoC_SPI_Wakeup:
 101              	.LFB5:
 102:.\Generated_Source\PSoC4/PSoC_SPI_PM.c **** 
 103:.\Generated_Source\PSoC4/PSoC_SPI_PM.c **** 
 104:.\Generated_Source\PSoC4/PSoC_SPI_PM.c **** /*******************************************************************************
 105:.\Generated_Source\PSoC4/PSoC_SPI_PM.c **** * Function Name: PSoC_SPI_Wakeup
 106:.\Generated_Source\PSoC4/PSoC_SPI_PM.c **** ********************************************************************************
 107:.\Generated_Source\PSoC4/PSoC_SPI_PM.c **** *
 108:.\Generated_Source\PSoC4/PSoC_SPI_PM.c **** * Summary:
 109:.\Generated_Source\PSoC4/PSoC_SPI_PM.c **** *  Prepare SPIM Component to wake up.
 110:.\Generated_Source\PSoC4/PSoC_SPI_PM.c **** *
 111:.\Generated_Source\PSoC4/PSoC_SPI_PM.c **** * Parameters:
 112:.\Generated_Source\PSoC4/PSoC_SPI_PM.c **** *  None.
 113:.\Generated_Source\PSoC4/PSoC_SPI_PM.c **** *
 114:.\Generated_Source\PSoC4/PSoC_SPI_PM.c **** * Return:
 115:.\Generated_Source\PSoC4/PSoC_SPI_PM.c **** *  None.
 116:.\Generated_Source\PSoC4/PSoC_SPI_PM.c **** *
 117:.\Generated_Source\PSoC4/PSoC_SPI_PM.c **** * Global Variables:
 118:.\Generated_Source\PSoC4/PSoC_SPI_PM.c **** *  PSoC_SPI_backup - used when non-retention registers are restored.
 119:.\Generated_Source\PSoC4/PSoC_SPI_PM.c **** *  PSoC_SPI_txBufferWrite - modified every function call - resets to
 120:.\Generated_Source\PSoC4/PSoC_SPI_PM.c **** *  zero.
 121:.\Generated_Source\PSoC4/PSoC_SPI_PM.c **** *  PSoC_SPI_txBufferRead - modified every function call - resets to
 122:.\Generated_Source\PSoC4/PSoC_SPI_PM.c **** *  zero.
 123:.\Generated_Source\PSoC4/PSoC_SPI_PM.c **** *  PSoC_SPI_rxBufferWrite - modified every function call - resets to
 124:.\Generated_Source\PSoC4/PSoC_SPI_PM.c **** *  zero.
 125:.\Generated_Source\PSoC4/PSoC_SPI_PM.c **** *  PSoC_SPI_rxBufferRead - modified every function call - resets to
 126:.\Generated_Source\PSoC4/PSoC_SPI_PM.c **** *  zero.
 127:.\Generated_Source\PSoC4/PSoC_SPI_PM.c **** *
ARM GAS  C:\Users\JOHNSO~1\AppData\Local\Temp\ccbNqaaZ.s 			page 5


 128:.\Generated_Source\PSoC4/PSoC_SPI_PM.c **** * Reentrant:
 129:.\Generated_Source\PSoC4/PSoC_SPI_PM.c **** *  No.
 130:.\Generated_Source\PSoC4/PSoC_SPI_PM.c **** *
 131:.\Generated_Source\PSoC4/PSoC_SPI_PM.c **** *******************************************************************************/
 132:.\Generated_Source\PSoC4/PSoC_SPI_PM.c **** void PSoC_SPI_Wakeup(void) 
 133:.\Generated_Source\PSoC4/PSoC_SPI_PM.c **** {
 102              		.loc 1 133 0
 103              		.cfi_startproc
 104 0000 08B5     		push	{r3, lr}
 105              		.cfi_def_cfa_offset 8
 106              		.cfi_offset 3, -8
 107              		.cfi_offset 14, -4
 134:.\Generated_Source\PSoC4/PSoC_SPI_PM.c ****     #if (PSoC_SPI_TX_SOFTWARE_BUF_ENABLED)
 135:.\Generated_Source\PSoC4/PSoC_SPI_PM.c ****         PSoC_SPI_txBufferFull = 0u;
 136:.\Generated_Source\PSoC4/PSoC_SPI_PM.c ****         PSoC_SPI_txBufferRead = 0u;
 137:.\Generated_Source\PSoC4/PSoC_SPI_PM.c ****         PSoC_SPI_txBufferWrite = 0u;
 138:.\Generated_Source\PSoC4/PSoC_SPI_PM.c ****     #endif /* PSoC_SPI_TX_SOFTWARE_BUF_ENABLED */
 139:.\Generated_Source\PSoC4/PSoC_SPI_PM.c **** 
 140:.\Generated_Source\PSoC4/PSoC_SPI_PM.c ****     #if (PSoC_SPI_RX_SOFTWARE_BUF_ENABLED)
 141:.\Generated_Source\PSoC4/PSoC_SPI_PM.c ****         PSoC_SPI_rxBufferFull = 0u;
 142:.\Generated_Source\PSoC4/PSoC_SPI_PM.c ****         PSoC_SPI_rxBufferRead = 0u;
 143:.\Generated_Source\PSoC4/PSoC_SPI_PM.c ****         PSoC_SPI_rxBufferWrite = 0u;
 144:.\Generated_Source\PSoC4/PSoC_SPI_PM.c ****     #endif /* PSoC_SPI_RX_SOFTWARE_BUF_ENABLED */
 145:.\Generated_Source\PSoC4/PSoC_SPI_PM.c **** 
 146:.\Generated_Source\PSoC4/PSoC_SPI_PM.c ****     PSoC_SPI_ClearFIFO();
 108              		.loc 1 146 0
 109 0002 FFF7FEFF 		bl	PSoC_SPI_ClearFIFO
 110              	.LVL1:
 147:.\Generated_Source\PSoC4/PSoC_SPI_PM.c **** 
 148:.\Generated_Source\PSoC4/PSoC_SPI_PM.c ****     /* Restore components block enable state */
 149:.\Generated_Source\PSoC4/PSoC_SPI_PM.c ****     if (PSoC_SPI_backup.enableState != 0u)
 111              		.loc 1 149 0
 112 0006 034B     		ldr	r3, .L10
 113 0008 1B78     		ldrb	r3, [r3]
 114 000a 002B     		cmp	r3, #0
 115 000c 01D0     		beq	.L8
 150:.\Generated_Source\PSoC4/PSoC_SPI_PM.c ****     {
 151:.\Generated_Source\PSoC4/PSoC_SPI_PM.c ****          /* Components block was enabled */
 152:.\Generated_Source\PSoC4/PSoC_SPI_PM.c ****          PSoC_SPI_Enable();
 116              		.loc 1 152 0
 117 000e FFF7FEFF 		bl	PSoC_SPI_Enable
 118              	.LVL2:
 119              	.L8:
 153:.\Generated_Source\PSoC4/PSoC_SPI_PM.c ****     } /* Do nothing if components block was disabled */
 154:.\Generated_Source\PSoC4/PSoC_SPI_PM.c **** }
 120              		.loc 1 154 0
 121              		@ sp needed
 122 0012 08BD     		pop	{r3, pc}
 123              	.L11:
 124              		.align	2
 125              	.L10:
 126 0014 00000000 		.word	.LANCHOR0
 127              		.cfi_endproc
 128              	.LFE5:
 129              		.size	PSoC_SPI_Wakeup, .-PSoC_SPI_Wakeup
 130              		.data
 131              		.align	2
ARM GAS  C:\Users\JOHNSO~1\AppData\Local\Temp\ccbNqaaZ.s 			page 6


 132              		.set	.LANCHOR0,. + 0
 133              		.type	PSoC_SPI_backup, %object
 134              		.size	PSoC_SPI_backup, 2
 135              	PSoC_SPI_backup:
 136 0000 00       		.byte	0
 137 0001 07       		.byte	7
 138 0002 0000     		.text
 139              	.Letext0:
 140              		.file 2 ".\\Generated_Source\\PSoC4\\cytypes.h"
 141              		.file 3 ".\\Generated_Source\\PSoC4\\PSoC_SPI.h"
 142              		.section	.debug_info,"",%progbits
 143              	.Ldebug_info0:
 144 0000 5B010000 		.4byte	0x15b
 145 0004 0400     		.2byte	0x4
 146 0006 00000000 		.4byte	.Ldebug_abbrev0
 147 000a 04       		.byte	0x4
 148 000b 01       		.uleb128 0x1
 149 000c DE010000 		.4byte	.LASF25
 150 0010 01       		.byte	0x1
 151 0011 F9000000 		.4byte	.LASF26
 152 0015 9C000000 		.4byte	.LASF27
 153 0019 00000000 		.4byte	.Ldebug_ranges0+0
 154 001d 00000000 		.4byte	0
 155 0021 00000000 		.4byte	.Ldebug_line0
 156 0025 02       		.uleb128 0x2
 157 0026 01       		.byte	0x1
 158 0027 06       		.byte	0x6
 159 0028 AD010000 		.4byte	.LASF0
 160 002c 02       		.uleb128 0x2
 161 002d 01       		.byte	0x1
 162 002e 08       		.byte	0x8
 163 002f 27000000 		.4byte	.LASF1
 164 0033 02       		.uleb128 0x2
 165 0034 02       		.byte	0x2
 166 0035 05       		.byte	0x5
 167 0036 BF010000 		.4byte	.LASF2
 168 003a 02       		.uleb128 0x2
 169 003b 02       		.byte	0x2
 170 003c 07       		.byte	0x7
 171 003d 9A010000 		.4byte	.LASF3
 172 0041 02       		.uleb128 0x2
 173 0042 04       		.byte	0x4
 174 0043 05       		.byte	0x5
 175 0044 47010000 		.4byte	.LASF4
 176 0048 02       		.uleb128 0x2
 177 0049 04       		.byte	0x4
 178 004a 07       		.byte	0x7
 179 004b 67010000 		.4byte	.LASF5
 180 004f 02       		.uleb128 0x2
 181 0050 08       		.byte	0x8
 182 0051 05       		.byte	0x5
 183 0052 00000000 		.4byte	.LASF6
 184 0056 02       		.uleb128 0x2
 185 0057 08       		.byte	0x8
 186 0058 07       		.byte	0x7
 187 0059 5E000000 		.4byte	.LASF7
 188 005d 03       		.uleb128 0x3
ARM GAS  C:\Users\JOHNSO~1\AppData\Local\Temp\ccbNqaaZ.s 			page 7


 189 005e 04       		.byte	0x4
 190 005f 05       		.byte	0x5
 191 0060 696E7400 		.ascii	"int\000"
 192 0064 02       		.uleb128 0x2
 193 0065 04       		.byte	0x4
 194 0066 07       		.byte	0x7
 195 0067 1A000000 		.4byte	.LASF8
 196 006b 04       		.uleb128 0x4
 197 006c 35000000 		.4byte	.LASF12
 198 0070 02       		.byte	0x2
 199 0071 C1       		.byte	0xc1
 200 0072 2C000000 		.4byte	0x2c
 201 0076 02       		.uleb128 0x2
 202 0077 04       		.byte	0x4
 203 0078 04       		.byte	0x4
 204 0079 B9010000 		.4byte	.LASF9
 205 007d 02       		.uleb128 0x2
 206 007e 08       		.byte	0x8
 207 007f 04       		.byte	0x4
 208 0080 79010000 		.4byte	.LASF10
 209 0084 02       		.uleb128 0x2
 210 0085 01       		.byte	0x1
 211 0086 08       		.byte	0x8
 212 0087 34010000 		.4byte	.LASF11
 213 008b 05       		.uleb128 0x5
 214 008c C9010000 		.4byte	.LASF13
 215 0090 02       		.byte	0x2
 216 0091 6B01     		.2byte	0x16b
 217 0093 97000000 		.4byte	0x97
 218 0097 06       		.uleb128 0x6
 219 0098 6B000000 		.4byte	0x6b
 220 009c 02       		.uleb128 0x2
 221 009d 04       		.byte	0x4
 222 009e 07       		.byte	0x7
 223 009f 5A020000 		.4byte	.LASF14
 224 00a3 07       		.uleb128 0x7
 225 00a4 02       		.byte	0x2
 226 00a5 03       		.byte	0x3
 227 00a6 3E       		.byte	0x3e
 228 00a7 C4000000 		.4byte	0xc4
 229 00ab 08       		.uleb128 0x8
 230 00ac 0E000000 		.4byte	.LASF15
 231 00b0 03       		.byte	0x3
 232 00b1 40       		.byte	0x40
 233 00b2 6B000000 		.4byte	0x6b
 234 00b6 00       		.byte	0
 235 00b7 08       		.uleb128 0x8
 236 00b8 8F010000 		.4byte	.LASF16
 237 00bc 03       		.byte	0x3
 238 00bd 41       		.byte	0x41
 239 00be 6B000000 		.4byte	0x6b
 240 00c2 01       		.byte	0x1
 241 00c3 00       		.byte	0
 242 00c4 04       		.uleb128 0x4
 243 00c5 50010000 		.4byte	.LASF17
 244 00c9 03       		.byte	0x3
 245 00ca 42       		.byte	0x42
ARM GAS  C:\Users\JOHNSO~1\AppData\Local\Temp\ccbNqaaZ.s 			page 8


 246 00cb A3000000 		.4byte	0xa3
 247 00cf 09       		.uleb128 0x9
 248 00d0 20010000 		.4byte	.LASF18
 249 00d4 01       		.byte	0x1
 250 00d5 29       		.byte	0x29
 251 00d6 00000000 		.4byte	.LFB2
 252 00da 02000000 		.4byte	.LFE2-.LFB2
 253 00de 01       		.uleb128 0x1
 254 00df 9C       		.byte	0x9c
 255 00e0 09       		.uleb128 0x9
 256 00e1 75000000 		.4byte	.LASF19
 257 00e5 01       		.byte	0x1
 258 00e6 3D       		.byte	0x3d
 259 00e7 00000000 		.4byte	.LFB3
 260 00eb 02000000 		.4byte	.LFE3-.LFB3
 261 00ef 01       		.uleb128 0x1
 262 00f0 9C       		.byte	0x9c
 263 00f1 0A       		.uleb128 0xa
 264 00f2 80010000 		.4byte	.LASF20
 265 00f6 01       		.byte	0x1
 266 00f7 57       		.byte	0x57
 267 00f8 00000000 		.4byte	.LFB4
 268 00fc 28000000 		.4byte	.LFE4-.LFB4
 269 0100 01       		.uleb128 0x1
 270 0101 9C       		.byte	0x9c
 271 0102 10010000 		.4byte	0x110
 272 0106 0B       		.uleb128 0xb
 273 0107 1C000000 		.4byte	.LVL0
 274 010b 49010000 		.4byte	0x149
 275 010f 00       		.byte	0
 276 0110 0A       		.uleb128 0xa
 277 0111 8C000000 		.4byte	.LASF21
 278 0115 01       		.byte	0x1
 279 0116 84       		.byte	0x84
 280 0117 00000000 		.4byte	.LFB5
 281 011b 18000000 		.4byte	.LFE5-.LFB5
 282 011f 01       		.uleb128 0x1
 283 0120 9C       		.byte	0x9c
 284 0121 38010000 		.4byte	0x138
 285 0125 0B       		.uleb128 0xb
 286 0126 06000000 		.4byte	.LVL1
 287 012a 50010000 		.4byte	0x150
 288 012e 0B       		.uleb128 0xb
 289 012f 12000000 		.4byte	.LVL2
 290 0133 57010000 		.4byte	0x157
 291 0137 00       		.byte	0
 292 0138 0C       		.uleb128 0xc
 293 0139 CE010000 		.4byte	.LASF28
 294 013d 01       		.byte	0x1
 295 013e 14       		.byte	0x14
 296 013f C4000000 		.4byte	0xc4
 297 0143 05       		.uleb128 0x5
 298 0144 03       		.byte	0x3
 299 0145 00000000 		.4byte	PSoC_SPI_backup
 300 0149 0D       		.uleb128 0xd
 301 014a 39010000 		.4byte	.LASF22
 302 014e 03       		.byte	0x3
ARM GAS  C:\Users\JOHNSO~1\AppData\Local\Temp\ccbNqaaZ.s 			page 9


 303 014f 4C       		.byte	0x4c
 304 0150 0D       		.uleb128 0xd
 305 0151 3B000000 		.4byte	.LASF23
 306 0155 03       		.byte	0x3
 307 0156 68       		.byte	0x68
 308 0157 0D       		.uleb128 0xd
 309 0158 4E000000 		.4byte	.LASF24
 310 015c 03       		.byte	0x3
 311 015d 4A       		.byte	0x4a
 312 015e 00       		.byte	0
 313              		.section	.debug_abbrev,"",%progbits
 314              	.Ldebug_abbrev0:
 315 0000 01       		.uleb128 0x1
 316 0001 11       		.uleb128 0x11
 317 0002 01       		.byte	0x1
 318 0003 25       		.uleb128 0x25
 319 0004 0E       		.uleb128 0xe
 320 0005 13       		.uleb128 0x13
 321 0006 0B       		.uleb128 0xb
 322 0007 03       		.uleb128 0x3
 323 0008 0E       		.uleb128 0xe
 324 0009 1B       		.uleb128 0x1b
 325 000a 0E       		.uleb128 0xe
 326 000b 55       		.uleb128 0x55
 327 000c 17       		.uleb128 0x17
 328 000d 11       		.uleb128 0x11
 329 000e 01       		.uleb128 0x1
 330 000f 10       		.uleb128 0x10
 331 0010 17       		.uleb128 0x17
 332 0011 00       		.byte	0
 333 0012 00       		.byte	0
 334 0013 02       		.uleb128 0x2
 335 0014 24       		.uleb128 0x24
 336 0015 00       		.byte	0
 337 0016 0B       		.uleb128 0xb
 338 0017 0B       		.uleb128 0xb
 339 0018 3E       		.uleb128 0x3e
 340 0019 0B       		.uleb128 0xb
 341 001a 03       		.uleb128 0x3
 342 001b 0E       		.uleb128 0xe
 343 001c 00       		.byte	0
 344 001d 00       		.byte	0
 345 001e 03       		.uleb128 0x3
 346 001f 24       		.uleb128 0x24
 347 0020 00       		.byte	0
 348 0021 0B       		.uleb128 0xb
 349 0022 0B       		.uleb128 0xb
 350 0023 3E       		.uleb128 0x3e
 351 0024 0B       		.uleb128 0xb
 352 0025 03       		.uleb128 0x3
 353 0026 08       		.uleb128 0x8
 354 0027 00       		.byte	0
 355 0028 00       		.byte	0
 356 0029 04       		.uleb128 0x4
 357 002a 16       		.uleb128 0x16
 358 002b 00       		.byte	0
 359 002c 03       		.uleb128 0x3
ARM GAS  C:\Users\JOHNSO~1\AppData\Local\Temp\ccbNqaaZ.s 			page 10


 360 002d 0E       		.uleb128 0xe
 361 002e 3A       		.uleb128 0x3a
 362 002f 0B       		.uleb128 0xb
 363 0030 3B       		.uleb128 0x3b
 364 0031 0B       		.uleb128 0xb
 365 0032 49       		.uleb128 0x49
 366 0033 13       		.uleb128 0x13
 367 0034 00       		.byte	0
 368 0035 00       		.byte	0
 369 0036 05       		.uleb128 0x5
 370 0037 16       		.uleb128 0x16
 371 0038 00       		.byte	0
 372 0039 03       		.uleb128 0x3
 373 003a 0E       		.uleb128 0xe
 374 003b 3A       		.uleb128 0x3a
 375 003c 0B       		.uleb128 0xb
 376 003d 3B       		.uleb128 0x3b
 377 003e 05       		.uleb128 0x5
 378 003f 49       		.uleb128 0x49
 379 0040 13       		.uleb128 0x13
 380 0041 00       		.byte	0
 381 0042 00       		.byte	0
 382 0043 06       		.uleb128 0x6
 383 0044 35       		.uleb128 0x35
 384 0045 00       		.byte	0
 385 0046 49       		.uleb128 0x49
 386 0047 13       		.uleb128 0x13
 387 0048 00       		.byte	0
 388 0049 00       		.byte	0
 389 004a 07       		.uleb128 0x7
 390 004b 13       		.uleb128 0x13
 391 004c 01       		.byte	0x1
 392 004d 0B       		.uleb128 0xb
 393 004e 0B       		.uleb128 0xb
 394 004f 3A       		.uleb128 0x3a
 395 0050 0B       		.uleb128 0xb
 396 0051 3B       		.uleb128 0x3b
 397 0052 0B       		.uleb128 0xb
 398 0053 01       		.uleb128 0x1
 399 0054 13       		.uleb128 0x13
 400 0055 00       		.byte	0
 401 0056 00       		.byte	0
 402 0057 08       		.uleb128 0x8
 403 0058 0D       		.uleb128 0xd
 404 0059 00       		.byte	0
 405 005a 03       		.uleb128 0x3
 406 005b 0E       		.uleb128 0xe
 407 005c 3A       		.uleb128 0x3a
 408 005d 0B       		.uleb128 0xb
 409 005e 3B       		.uleb128 0x3b
 410 005f 0B       		.uleb128 0xb
 411 0060 49       		.uleb128 0x49
 412 0061 13       		.uleb128 0x13
 413 0062 38       		.uleb128 0x38
 414 0063 0B       		.uleb128 0xb
 415 0064 00       		.byte	0
 416 0065 00       		.byte	0
ARM GAS  C:\Users\JOHNSO~1\AppData\Local\Temp\ccbNqaaZ.s 			page 11


 417 0066 09       		.uleb128 0x9
 418 0067 2E       		.uleb128 0x2e
 419 0068 00       		.byte	0
 420 0069 3F       		.uleb128 0x3f
 421 006a 19       		.uleb128 0x19
 422 006b 03       		.uleb128 0x3
 423 006c 0E       		.uleb128 0xe
 424 006d 3A       		.uleb128 0x3a
 425 006e 0B       		.uleb128 0xb
 426 006f 3B       		.uleb128 0x3b
 427 0070 0B       		.uleb128 0xb
 428 0071 27       		.uleb128 0x27
 429 0072 19       		.uleb128 0x19
 430 0073 11       		.uleb128 0x11
 431 0074 01       		.uleb128 0x1
 432 0075 12       		.uleb128 0x12
 433 0076 06       		.uleb128 0x6
 434 0077 40       		.uleb128 0x40
 435 0078 18       		.uleb128 0x18
 436 0079 9742     		.uleb128 0x2117
 437 007b 19       		.uleb128 0x19
 438 007c 00       		.byte	0
 439 007d 00       		.byte	0
 440 007e 0A       		.uleb128 0xa
 441 007f 2E       		.uleb128 0x2e
 442 0080 01       		.byte	0x1
 443 0081 3F       		.uleb128 0x3f
 444 0082 19       		.uleb128 0x19
 445 0083 03       		.uleb128 0x3
 446 0084 0E       		.uleb128 0xe
 447 0085 3A       		.uleb128 0x3a
 448 0086 0B       		.uleb128 0xb
 449 0087 3B       		.uleb128 0x3b
 450 0088 0B       		.uleb128 0xb
 451 0089 27       		.uleb128 0x27
 452 008a 19       		.uleb128 0x19
 453 008b 11       		.uleb128 0x11
 454 008c 01       		.uleb128 0x1
 455 008d 12       		.uleb128 0x12
 456 008e 06       		.uleb128 0x6
 457 008f 40       		.uleb128 0x40
 458 0090 18       		.uleb128 0x18
 459 0091 9742     		.uleb128 0x2117
 460 0093 19       		.uleb128 0x19
 461 0094 01       		.uleb128 0x1
 462 0095 13       		.uleb128 0x13
 463 0096 00       		.byte	0
 464 0097 00       		.byte	0
 465 0098 0B       		.uleb128 0xb
 466 0099 898201   		.uleb128 0x4109
 467 009c 00       		.byte	0
 468 009d 11       		.uleb128 0x11
 469 009e 01       		.uleb128 0x1
 470 009f 31       		.uleb128 0x31
 471 00a0 13       		.uleb128 0x13
 472 00a1 00       		.byte	0
 473 00a2 00       		.byte	0
ARM GAS  C:\Users\JOHNSO~1\AppData\Local\Temp\ccbNqaaZ.s 			page 12


 474 00a3 0C       		.uleb128 0xc
 475 00a4 34       		.uleb128 0x34
 476 00a5 00       		.byte	0
 477 00a6 03       		.uleb128 0x3
 478 00a7 0E       		.uleb128 0xe
 479 00a8 3A       		.uleb128 0x3a
 480 00a9 0B       		.uleb128 0xb
 481 00aa 3B       		.uleb128 0x3b
 482 00ab 0B       		.uleb128 0xb
 483 00ac 49       		.uleb128 0x49
 484 00ad 13       		.uleb128 0x13
 485 00ae 02       		.uleb128 0x2
 486 00af 18       		.uleb128 0x18
 487 00b0 00       		.byte	0
 488 00b1 00       		.byte	0
 489 00b2 0D       		.uleb128 0xd
 490 00b3 2E       		.uleb128 0x2e
 491 00b4 00       		.byte	0
 492 00b5 3F       		.uleb128 0x3f
 493 00b6 19       		.uleb128 0x19
 494 00b7 03       		.uleb128 0x3
 495 00b8 0E       		.uleb128 0xe
 496 00b9 3A       		.uleb128 0x3a
 497 00ba 0B       		.uleb128 0xb
 498 00bb 3B       		.uleb128 0x3b
 499 00bc 0B       		.uleb128 0xb
 500 00bd 27       		.uleb128 0x27
 501 00be 19       		.uleb128 0x19
 502 00bf 3C       		.uleb128 0x3c
 503 00c0 19       		.uleb128 0x19
 504 00c1 00       		.byte	0
 505 00c2 00       		.byte	0
 506 00c3 00       		.byte	0
 507              		.section	.debug_aranges,"",%progbits
 508 0000 34000000 		.4byte	0x34
 509 0004 0200     		.2byte	0x2
 510 0006 00000000 		.4byte	.Ldebug_info0
 511 000a 04       		.byte	0x4
 512 000b 00       		.byte	0
 513 000c 0000     		.2byte	0
 514 000e 0000     		.2byte	0
 515 0010 00000000 		.4byte	.LFB2
 516 0014 02000000 		.4byte	.LFE2-.LFB2
 517 0018 00000000 		.4byte	.LFB3
 518 001c 02000000 		.4byte	.LFE3-.LFB3
 519 0020 00000000 		.4byte	.LFB4
 520 0024 28000000 		.4byte	.LFE4-.LFB4
 521 0028 00000000 		.4byte	.LFB5
 522 002c 18000000 		.4byte	.LFE5-.LFB5
 523 0030 00000000 		.4byte	0
 524 0034 00000000 		.4byte	0
 525              		.section	.debug_ranges,"",%progbits
 526              	.Ldebug_ranges0:
 527 0000 00000000 		.4byte	.LFB2
 528 0004 02000000 		.4byte	.LFE2
 529 0008 00000000 		.4byte	.LFB3
 530 000c 02000000 		.4byte	.LFE3
ARM GAS  C:\Users\JOHNSO~1\AppData\Local\Temp\ccbNqaaZ.s 			page 13


 531 0010 00000000 		.4byte	.LFB4
 532 0014 28000000 		.4byte	.LFE4
 533 0018 00000000 		.4byte	.LFB5
 534 001c 18000000 		.4byte	.LFE5
 535 0020 00000000 		.4byte	0
 536 0024 00000000 		.4byte	0
 537              		.section	.debug_line,"",%progbits
 538              	.Ldebug_line0:
 539 0000 A9000000 		.section	.debug_str,"MS",%progbits,1
 539      02005800 
 539      00000201 
 539      FB0E0D00 
 539      01010101 
 540              	.LASF6:
 541 0000 6C6F6E67 		.ascii	"long long int\000"
 541      206C6F6E 
 541      6720696E 
 541      7400
 542              	.LASF15:
 543 000e 656E6162 		.ascii	"enableState\000"
 543      6C655374 
 543      61746500 
 544              	.LASF8:
 545 001a 756E7369 		.ascii	"unsigned int\000"
 545      676E6564 
 545      20696E74 
 545      00
 546              	.LASF1:
 547 0027 756E7369 		.ascii	"unsigned char\000"
 547      676E6564 
 547      20636861 
 547      7200
 548              	.LASF12:
 549 0035 75696E74 		.ascii	"uint8\000"
 549      3800
 550              	.LASF23:
 551 003b 50536F43 		.ascii	"PSoC_SPI_ClearFIFO\000"
 551      5F535049 
 551      5F436C65 
 551      61724649 
 551      464F00
 552              	.LASF24:
 553 004e 50536F43 		.ascii	"PSoC_SPI_Enable\000"
 553      5F535049 
 553      5F456E61 
 553      626C6500 
 554              	.LASF7:
 555 005e 6C6F6E67 		.ascii	"long long unsigned int\000"
 555      206C6F6E 
 555      6720756E 
 555      7369676E 
 555      65642069 
 556              	.LASF19:
 557 0075 50536F43 		.ascii	"PSoC_SPI_RestoreConfig\000"
 557      5F535049 
 557      5F526573 
 557      746F7265 
ARM GAS  C:\Users\JOHNSO~1\AppData\Local\Temp\ccbNqaaZ.s 			page 14


 557      436F6E66 
 558              	.LASF21:
 559 008c 50536F43 		.ascii	"PSoC_SPI_Wakeup\000"
 559      5F535049 
 559      5F57616B 
 559      65757000 
 560              	.LASF27:
 561 009c 443A5C4D 		.ascii	"D:\\MyDocs\\Documents\\PSoC Creator\\Pneumatic Walk"
 561      79446F63 
 561      735C446F 
 561      63756D65 
 561      6E74735C 
 562 00cb 696E6720 		.ascii	"ing Robot-Final\\Pneumatic Walking Robot.cydsn\000"
 562      526F626F 
 562      742D4669 
 562      6E616C5C 
 562      506E6575 
 563              	.LASF26:
 564 00f9 2E5C4765 		.ascii	".\\Generated_Source\\PSoC4\\PSoC_SPI_PM.c\000"
 564      6E657261 
 564      7465645F 
 564      536F7572 
 564      63655C50 
 565              	.LASF18:
 566 0120 50536F43 		.ascii	"PSoC_SPI_SaveConfig\000"
 566      5F535049 
 566      5F536176 
 566      65436F6E 
 566      66696700 
 567              	.LASF11:
 568 0134 63686172 		.ascii	"char\000"
 568      00
 569              	.LASF22:
 570 0139 50536F43 		.ascii	"PSoC_SPI_Stop\000"
 570      5F535049 
 570      5F53746F 
 570      7000
 571              	.LASF4:
 572 0147 6C6F6E67 		.ascii	"long int\000"
 572      20696E74 
 572      00
 573              	.LASF17:
 574 0150 50536F43 		.ascii	"PSoC_SPI_BACKUP_STRUCT\000"
 574      5F535049 
 574      5F424143 
 574      4B55505F 
 574      53545255 
 575              	.LASF5:
 576 0167 6C6F6E67 		.ascii	"long unsigned int\000"
 576      20756E73 
 576      69676E65 
 576      6420696E 
 576      7400
 577              	.LASF10:
 578 0179 646F7562 		.ascii	"double\000"
 578      6C6500
 579              	.LASF20:
ARM GAS  C:\Users\JOHNSO~1\AppData\Local\Temp\ccbNqaaZ.s 			page 15


 580 0180 50536F43 		.ascii	"PSoC_SPI_Sleep\000"
 580      5F535049 
 580      5F536C65 
 580      657000
 581              	.LASF16:
 582 018f 636E7472 		.ascii	"cntrPeriod\000"
 582      50657269 
 582      6F6400
 583              	.LASF3:
 584 019a 73686F72 		.ascii	"short unsigned int\000"
 584      7420756E 
 584      7369676E 
 584      65642069 
 584      6E7400
 585              	.LASF0:
 586 01ad 7369676E 		.ascii	"signed char\000"
 586      65642063 
 586      68617200 
 587              	.LASF9:
 588 01b9 666C6F61 		.ascii	"float\000"
 588      7400
 589              	.LASF2:
 590 01bf 73686F72 		.ascii	"short int\000"
 590      7420696E 
 590      7400
 591              	.LASF13:
 592 01c9 72656738 		.ascii	"reg8\000"
 592      00
 593              	.LASF28:
 594 01ce 50536F43 		.ascii	"PSoC_SPI_backup\000"
 594      5F535049 
 594      5F626163 
 594      6B757000 
 595              	.LASF25:
 596 01de 474E5520 		.ascii	"GNU C 4.8.4 20140526 (release) [ARM/embedded-4_8-br"
 596      4320342E 
 596      382E3420 
 596      32303134 
 596      30353236 
 597 0211 616E6368 		.ascii	"anch revision 211358] -mcpu=cortex-m0 -mthumb -g -O"
 597      20726576 
 597      6973696F 
 597      6E203231 
 597      31333538 
 598 0244 67202D66 		.ascii	"g -ffunction-sections\000"
 598      66756E63 
 598      74696F6E 
 598      2D736563 
 598      74696F6E 
 599              	.LASF14:
 600 025a 73697A65 		.ascii	"sizetype\000"
 600      74797065 
 600      00
 601              		.ident	"GCC: (GNU Tools for ARM Embedded Processors) 4.8.4 20140526 (release) [ARM/embedded-4_8-br
